15:48:48 312	Layer<1-1-2-2>:测试设备开始
15:48:48 345	Layer<1-1-2-2>:测试设备成功
15:48:48 371	Layer<1-1-2-2>: Download resource...
15:48:48 603	Layer<1-1-2-2>: Download kernel...
15:48:50 946	Layer<1-1-2-2>: RunProc is ending, ret=1
15:49:44 333	Info:RunExe->cmd=netstat -ano
15:49:47 646	Info:RunExe->cmd="\\192.168.1.186\rp-share\bill\3399\sdk-7.1\RKTools\windows\AndroidTool\AndroidTool_Release_v2.42\bin\adb.exe" -s C8W7KHVHZC reboot bootloader
15:50:14 271	Layer<1-1-2-2>:测试设备开始
15:50:14 276	Layer<1-1-2-2>:测试设备成功
15:50:14 280	Layer<1-1-2-2>:校验芯片开始
15:50:14 285	Layer<1-1-2-2>:校验芯片成功
15:50:14 290	Layer<1-1-2-2>:获取FlashInfo开始
15:50:14 294	<LAYER 1-1-2-2> INFO:FlashInfo: 00 F0 D1 01 00 04 04 00 28 00 01
15:50:14 298	<LAYER 1-1-2-2> INFO:GetFlashInfo-->Emmc storage.
15:50:14 303	Layer<1-1-2-2>:获取FlashInfo成功
15:50:14 307	Layer<1-1-2-2>:准备IDB开始
15:50:14 312	<LAYER 1-1-2-2> INFO:CS(1)		(14910MB)		(SAMSUNG)
15:50:14 322	Layer<1-1-2-2>:准备IDB成功
15:50:14 327	Layer<1-1-2-2>:下载IDB开始
15:50:14 499	Layer<1-1-2-2>:下载IDB成功
15:50:14 504	Layer<1-1-2-2>:重启设备开始
15:50:15 508	Layer<1-1-2-2>:重启设备成功
15:50:15 513	Layer<1-1-2-2>:等待Loader开始
15:50:16 205	Layer<1-1-2-2>:等待Loader成功
15:50:16 211	Layer<1-1-2-2>:测试设备开始
15:50:16 218	Layer<1-1-2-2>:测试设备成功
15:50:16 244	Layer<1-1-2-2>: Download parameter...
15:50:16 325	Layer<1-1-2-2>: Download uboot...
15:50:16 877	Layer<1-1-2-2>: Download trust...
15:50:17 435	Layer<1-1-2-2>: Download misc...
15:50:17 460	Layer<1-1-2-2>: Download resource...
15:50:17 939	Layer<1-1-2-2>: Download kernel...
15:50:20 382	Layer<1-1-2-2>: Download boot...
15:50:20 698	Layer<1-1-2-2>: Download recovery...
15:50:21 700	Layer<1-1-2-2>: RunProc is ending, ret=1
15:53:10 579	Layer<1-1-2-2>:测试设备开始
15:53:10 586	Layer<1-1-2-2>:测试设备成功
15:53:10 595	Layer<1-1-2-2>: Download resource...
15:53:10 731	Layer<1-1-2-2>: Download kernel...
15:53:13 124	Layer<1-1-2-2>: RunProc is ending, ret=1
15:54:26 817	Layer<1-1-2-2>:测试设备开始
15:54:26 828	Layer<1-1-2-2>:测试设备成功
15:54:26 841	Layer<1-1-2-2>: Download resource...
15:54:26 984	Layer<1-1-2-2>: Download kernel...
15:54:29 422	Layer<1-1-2-2>: RunProc is ending, ret=1
16:36:24 782	Info:RunExe->cmd=netstat -ano
16:36:27 808	Info:RunExe->cmd="\\192.168.1.186\rp-share\bill\3399\sdk-7.1\RKTools\windows\AndroidTool\AndroidTool_Release_v2.42\bin\adb.exe" reboot bootloader
16:36:32 258	* daemon not running. starting it now on port 5037 *
* daemon started successfully *
error: device not found

16:36:33 264	Info:RunExe->cmd="\\192.168.1.186\rp-share\bill\3399\sdk-7.1\RKTools\windows\AndroidTool\AndroidTool_Release_v2.42\bin\adb.exe" reboot bootloader
16:37:30 547	Layer<1-1-2-2>:测试设备开始
16:37:30 559	Layer<1-1-2-2>:测试设备成功
16:37:30 577	Layer<1-1-2-2>: Download resource...
16:37:30 711	Layer<1-1-2-2>: Download kernel...
16:37:33 096	Layer<1-1-2-2>: RunProc is ending, ret=1
16:40:36 026	Layer<1-1-2-2>:测试设备开始
16:40:36 035	Layer<1-1-2-2>:测试设备成功
16:40:36 047	Layer<1-1-2-2>: Download resource...
16:40:36 173	Layer<1-1-2-2>: Download kernel...
16:40:38 575	Layer<1-1-2-2>: RunProc is ending, ret=1
16:58:16 787	Info:RunExe->cmd=netstat -ano
16:58:19 812	ERROR:GetAdbSerialno->AdbCreateInterfaceByName failed,err=2,dev=\\?\USB#VID_2207&PID_0006#7&39CFAA1D&0&2#{f72fe0d4-cbcb-407d-8814-9ed673d0dd6b}!
16:58:19 820	ERROR:AdbToRockusb->GetAdbSerialno failed!
16:58:19 824	Info:RunExe->cmd="\\192.168.1.186\rp-share\bill\3399\sdk-7.1\RKTools\windows\AndroidTool\AndroidTool_Release_v2.42\bin\adb.exe" reboot bootloader
16:58:24 290	* daemon not running. starting it now on port 5037 *
* daemon started successfully *
error: device not found

16:58:25 297	Info:RunExe->cmd="\\192.168.1.186\rp-share\bill\3399\sdk-7.1\RKTools\windows\AndroidTool\AndroidTool_Release_v2.42\bin\adb.exe" reboot bootloader
16:58:56 686	Layer<1-1-2-2>:测试设备开始
16:58:56 696	Layer<1-1-2-2>:测试设备成功
16:58:56 706	Layer<1-1-2-2>: Download resource...
16:58:56 840	Layer<1-1-2-2>: Download kernel...
16:58:59 166	Layer<1-1-2-2>: RunProc is ending, ret=1
17:04:29 982	Layer<1-1-2-2>:测试设备开始
17:04:29 991	Layer<1-1-2-2>:测试设备成功
17:04:30 004	Layer<1-1-2-2>: Download resource...
17:04:30 130	Layer<1-1-2-2>: Download kernel...
17:04:32 511	Layer<1-1-2-2>: RunProc is ending, ret=1
17:06:13 199	Layer<1-1-2-2>:测试设备开始
17:06:13 207	Layer<1-1-2-2>:测试设备成功
17:06:13 216	Layer<1-1-2-2>: Download resource...
17:06:13 351	Layer<1-1-2-2>: Download kernel...
17:06:15 661	Layer<1-1-2-2>: RunProc is ending, ret=1
17:19:20 880	Layer<1-1-2-2>:测试设备开始
17:19:20 888	Layer<1-1-2-2>:测试设备成功
17:19:20 897	Layer<1-1-2-2>: Download resource...
17:19:21 027	Layer<1-1-2-2>: Download kernel...
17:19:23 359	Layer<1-1-2-2>: RunProc is ending, ret=1
17:22:51 050	Layer<1-1-2-2>:测试设备开始
17:22:51 059	Layer<1-1-2-2>:测试设备成功
17:22:51 076	Layer<1-1-2-2>: Download resource...
17:22:51 208	Layer<1-1-2-2>: Download kernel...
17:22:53 553	Layer<1-1-2-2>: RunProc is ending, ret=1
17:38:44 151	Layer<1-1-2-2>:测试设备开始
17:38:44 159	Layer<1-1-2-2>:测试设备成功
17:38:44 169	Layer<1-1-2-2>: Download resource...
17:38:44 300	Layer<1-1-2-2>: Download kernel...
17:38:46 645	Layer<1-1-2-2>: RunProc is ending, ret=1
17:40:04 250	Info:RunExe->cmd=netstat -ano
17:40:06 668	ERROR:GetAdbSerialno->AdbCreateInterfaceByName failed,err=5,dev=\\?\USB#VID_2207&PID_0006#7&39CFAA1D&0&2#{f72fe0d4-cbcb-407d-8814-9ed673d0dd6b}!
17:40:06 690	ERROR:AdbToRockusb->GetAdbSerialno failed!
17:40:06 695	Info:RunExe->cmd="\\192.168.1.186\rp-share\bill\3399\sdk-7.1\RKTools\windows\AndroidTool\AndroidTool_Release_v2.42\bin\adb.exe" reboot bootloader
17:40:38 608	Layer<1-1-2-2>:测试设备开始
17:40:38 616	Layer<1-1-2-2>:测试设备成功
17:40:38 628	Layer<1-1-2-2>: Download resource...
17:40:38 770	Layer<1-1-2-2>: Download kernel...
17:40:41 112	Layer<1-1-2-2>: RunProc is ending, ret=1
17:49:05 641	Layer<1-1-2-2>:测试设备开始
17:49:05 650	Layer<1-1-2-2>:测试设备成功
17:49:05 661	Layer<1-1-2-2>: Download resource...
17:49:05 792	Layer<1-1-2-2>: Download kernel...
17:49:08 169	Layer<1-1-2-2>: RunProc is ending, ret=1
18:12:45 858	Layer<1-1-2-2>:测试设备开始
18:12:45 867	Layer<1-1-2-2>:测试设备成功
18:12:45 881	Layer<1-1-2-2>: Download resource...
18:12:46 013	Layer<1-1-2-2>: Download kernel...
18:12:48 368	Layer<1-1-2-2>: RunProc is ending, ret=1
19:03:29 580	Info:RunExe->cmd=netstat -ano
19:03:31 600	ERROR:GetAdbSerialno->AdbCreateInterfaceByName failed,err=5,dev=\\?\USB#VID_2207&PID_0006#7&39CFAA1D&0&2#{f72fe0d4-cbcb-407d-8814-9ed673d0dd6b}!
19:03:31 609	ERROR:AdbToRockusb->GetAdbSerialno failed!
19:03:31 620	Info:RunExe->cmd="\\192.168.1.186\rp-share\bill\3399\sdk-7.1\RKTools\windows\AndroidTool\AndroidTool_Release_v2.42\bin\adb.exe" reboot bootloader
19:03:36 114	* daemon not running. starting it now on port 5037 *
* daemon started successfully *
error: device not found

19:03:37 120	Info:RunExe->cmd="\\192.168.1.186\rp-share\bill\3399\sdk-7.1\RKTools\windows\AndroidTool\AndroidTool_Release_v2.42\bin\adb.exe" reboot bootloader
19:03:38 400	Layer<1-1-2-2>:测试设备开始
19:03:38 408	Layer<1-1-2-2>:测试设备成功
19:03:38 414	Layer<1-1-2-2>:校验芯片开始
19:03:38 424	Layer<1-1-2-2>:校验芯片成功
19:03:38 431	Layer<1-1-2-2>:获取FlashInfo开始
19:03:38 436	<LAYER 1-1-2-2> INFO:FlashInfo: 00 F0 D1 01 00 04 04 00 28 00 01
19:03:38 442	<LAYER 1-1-2-2> INFO:GetFlashInfo-->Emmc storage.
19:03:38 448	Layer<1-1-2-2>:获取FlashInfo成功
19:03:38 454	Layer<1-1-2-2>:准备IDB开始
19:03:38 459	<LAYER 1-1-2-2> INFO:CS(1)		(14910MB)		(SAMSUNG)
19:03:38 469	Layer<1-1-2-2>:准备IDB成功
19:03:38 478	Layer<1-1-2-2>:下载IDB开始
19:03:38 652	Layer<1-1-2-2>:下载IDB成功
19:03:38 658	Layer<1-1-2-2>:重启设备开始
19:03:39 665	Layer<1-1-2-2>:重启设备成功
19:03:39 672	Layer<1-1-2-2>:等待Loader开始
19:03:40 253	Layer<1-1-2-2>:等待Loader成功
19:03:40 259	Layer<1-1-2-2>:测试设备开始
19:03:40 267	Layer<1-1-2-2>:测试设备成功
19:03:40 275	Layer<1-1-2-2>: Download parameter...
19:03:40 328	Layer<1-1-2-2>: Download uboot...
19:03:40 895	Layer<1-1-2-2>: Download trust...
19:03:41 472	Layer<1-1-2-2>: Download misc...
19:03:41 501	Layer<1-1-2-2>: Download resource...
19:03:41 963	Layer<1-1-2-2>: Download kernel...
19:03:44 494	Layer<1-1-2-2>: Download boot...
19:03:44 799	Layer<1-1-2-2>: Download recovery...
19:03:45 832	Layer<1-1-2-2>: DownloadSparse system...
19:07:08 145	Layer<1-1-2-2>: RunProc is ending, ret=1
