11:15:30 348	Layer<1-1-2-2>:测试设备开始
11:15:30 358	Layer<1-1-2-2>:测试设备成功
11:15:30 373	Layer<1-1-2-2>: Download resource...
11:15:30 518	Layer<1-1-2-2>: Download kernel...
11:15:32 903	Layer<1-1-2-2>: RunProc is ending, ret=1
11:17:16 436	Layer<1-1-2-2>:测试设备开始
11:17:16 444	Layer<1-1-2-2>:测试设备成功
11:17:16 453	Layer<1-1-2-2>: Download resource...
11:17:16 592	Layer<1-1-2-2>: Download kernel...
11:17:19 015	Layer<1-1-2-2>: RunProc is ending, ret=1
11:19:38 467	Layer<1-1-2-2>:测试设备开始
11:19:38 496	Layer<1-1-2-2>:测试设备成功
11:19:38 504	Layer<1-1-2-2>: Download resource...
11:19:38 651	Layer<1-1-2-2>: Download kernel...
11:19:41 015	Layer<1-1-2-2>: RunProc is ending, ret=1
11:19:50 351	Layer<1-1-2-2>:测试设备开始
11:19:50 358	Layer<1-1-2-2>:测试设备成功
11:19:50 368	Layer<1-1-2-2>: Download resource...
11:19:50 435	Layer<1-1-2-2>: Download kernel...
11:19:51 790	Layer<1-1-2-2>: RunProc is ending, ret=1
11:21:18 992	Layer<1-1-2-2>:测试设备开始
11:21:19 001	Layer<1-1-2-2>:测试设备成功
11:21:19 011	Layer<1-1-2-2>: Download resource...
11:21:19 138	Layer<1-1-2-2>: Download kernel...
11:21:21 520	Layer<1-1-2-2>: RunProc is ending, ret=1
11:34:17 071	Layer<1-1-2-2>:测试设备开始
11:34:17 081	Layer<1-1-2-2>:测试设备成功
11:34:17 093	Layer<1-1-2-2>: Download resource...
11:34:17 230	Layer<1-1-2-2>: Download kernel...
11:34:19 663	Layer<1-1-2-2>: RunProc is ending, ret=1
13:48:21 827	Info:RunExe->cmd=netstat -ano
13:48:24 808	ERROR:GetAdbSerialno->AdbCreateInterfaceByName failed,err=2,dev=\\?\USB#VID_2207&PID_0006#7&39CFAA1D&0&2#{f72fe0d4-cbcb-407d-8814-9ed673d0dd6b}!
13:48:24 818	ERROR:AdbToRockusb->GetAdbSerialno failed!
13:48:24 825	Info:RunExe->cmd="\\192.168.1.186\rp-share\bill\3399\sdk-7.1\RKTools\windows\AndroidTool\AndroidTool_Release_v2.42\bin\adb.exe" reboot bootloader
13:48:29 495	* daemon not running. starting it now on port 5037 *
* daemon started successfully *
error: device not found

13:48:30 501	Info:RunExe->cmd="\\192.168.1.186\rp-share\bill\3399\sdk-7.1\RKTools\windows\AndroidTool\AndroidTool_Release_v2.42\bin\adb.exe" reboot bootloader
13:48:31 616	Layer<1-1-2-2>:测试设备开始
13:48:31 625	Layer<1-1-2-2>:测试设备成功
13:48:31 638	Layer<1-1-2-2>: Download resource...
13:48:31 772	Layer<1-1-2-2>: Download kernel...
13:48:34 167	Layer<1-1-2-2>: RunProc is ending, ret=1
13:49:54 131	Layer<1-1-2-2>:测试设备开始
13:49:54 141	Layer<1-1-2-2>:测试设备成功
13:49:54 156	Layer<1-1-2-2>: Download resource...
13:49:54 297	Layer<1-1-2-2>: Download kernel...
13:49:56 674	Layer<1-1-2-2>: RunProc is ending, ret=1
14:05:19 072	Layer<1-1-2-2>:测试设备开始
14:05:19 114	Layer<1-1-2-2>:测试设备成功
14:05:19 126	Layer<1-1-2-2>: Download resource...
14:05:19 267	Layer<1-1-2-2>: Download kernel...
14:05:21 698	Layer<1-1-2-2>: RunProc is ending, ret=1
16:26:50 435	Layer<1-1-2-2>:测试设备开始
16:26:50 444	Layer<1-1-2-2>:测试设备成功
16:26:50 454	Layer<1-1-2-2>:校验芯片开始
16:26:50 461	Layer<1-1-2-2>:校验芯片成功
16:26:50 468	Layer<1-1-2-2>:获取FlashInfo开始
16:26:50 474	<LAYER 1-1-2-2> INFO:FlashInfo: 00 F0 D1 01 00 04 04 00 28 00 01
16:26:50 480	<LAYER 1-1-2-2> INFO:GetFlashInfo-->Emmc storage.
16:26:50 487	Layer<1-1-2-2>:获取FlashInfo成功
16:26:50 494	Layer<1-1-2-2>:准备IDB开始
16:26:50 500	<LAYER 1-1-2-2> INFO:CS(1)		(14910MB)		(SAMSUNG)
16:26:50 514	Layer<1-1-2-2>:准备IDB成功
16:26:50 522	Layer<1-1-2-2>:下载IDB开始
16:26:50 710	Layer<1-1-2-2>:下载IDB成功
16:26:50 717	Layer<1-1-2-2>:重启设备开始
16:26:51 724	Layer<1-1-2-2>:重启设备成功
16:26:51 733	Layer<1-1-2-2>:等待Loader开始
16:26:52 496	Layer<1-1-2-2>:等待Loader成功
16:26:52 507	Layer<1-1-2-2>:测试设备开始
16:26:52 521	Layer<1-1-2-2>:测试设备成功
16:26:52 534	Layer<1-1-2-2>:下载固件开始
16:26:52 541	<LAYER 1-1-2-2> INFO:Start download image,total=1192120452,band=64
16:26:52 583	<LAYER 1-1-2-2> INFO:Start to download trust,offset=0x4000,size=4194304
16:26:52 788	<LAYER 1-1-2-2> INFO:Start to download uboot,offset=0x2000,size=4194304
16:26:52 993	<LAYER 1-1-2-2> INFO:Start to download misc,offset=0x6000,size=49152
16:26:53 013	<LAYER 1-1-2-2> INFO:Start to download resource,offset=0x8000,size=753152
16:26:53 051	<LAYER 1-1-2-2> INFO:Start to download kernel,offset=0x10000,size=19759124
16:26:53 981	<LAYER 1-1-2-2> INFO:Start to download boot,offset=0x1c000,size=1992552
16:26:54 072	<LAYER 1-1-2-2> INFO:Start to download recovery,offset=0x2c000,size=7736984
16:26:54 406	<LAYER 1-1-2-2> INFO:Start to download system,offset=0xc4000,size=1153433600
16:27:46 721	<LAYER 1-1-2-2> INFO:Start to check trust,offset=0x4000,size=4194304
16:27:46 873	<LAYER 1-1-2-2> INFO:Start to check uboot,offset=0x2000,size=4194304
16:27:47 020	<LAYER 1-1-2-2> INFO:Start to check misc,offset=0x6000,size=49152
16:27:47 032	<LAYER 1-1-2-2> INFO:Start to check resource,offset=0x8000,size=753152
16:27:47 064	<LAYER 1-1-2-2> INFO:Start to check kernel,offset=0x10000,size=19759124
16:27:47 697	<LAYER 1-1-2-2> INFO:Start to check boot,offset=0x1c000,size=1992552
16:27:47 772	<LAYER 1-1-2-2> INFO:Start to check recovery,offset=0x2c000,size=7736984
16:27:48 041	<LAYER 1-1-2-2> INFO:Start to check system,offset=0xc4000,size=1153433600
16:28:25 352	Layer<1-1-2-2>:下载固件成功
16:28:25 365	Layer<1-1-2-2>:重启设备开始
16:28:26 375	Layer<1-1-2-2>:重启设备成功
16:30:10 516	Layer<1-1-2-2>:测试设备开始
16:30:10 528	Layer<1-1-2-2>:测试设备成功
16:30:10 539	Layer<1-1-2-2>:校验芯片开始
16:30:10 549	Layer<1-1-2-2>:校验芯片成功
16:30:10 558	Layer<1-1-2-2>:获取FlashInfo开始
16:30:10 564	<LAYER 1-1-2-2> INFO:FlashInfo: 00 F0 D1 01 00 04 04 00 28 00 01
16:30:10 572	<LAYER 1-1-2-2> INFO:GetFlashInfo-->Emmc storage.
16:30:10 581	Layer<1-1-2-2>:获取FlashInfo成功
16:30:10 594	Layer<1-1-2-2>:准备IDB开始
16:30:10 600	<LAYER 1-1-2-2> INFO:CS(1)		(14910MB)		(SAMSUNG)
16:30:10 620	Layer<1-1-2-2>:准备IDB成功
16:30:10 630	Layer<1-1-2-2>:下载IDB开始
16:30:10 819	Layer<1-1-2-2>:下载IDB成功
16:30:10 825	Layer<1-1-2-2>:重启设备开始
16:30:11 848	Layer<1-1-2-2>:重启设备成功
16:30:11 857	Layer<1-1-2-2>:等待Loader开始
16:30:12 519	Layer<1-1-2-2>:等待Loader成功
16:30:12 525	Layer<1-1-2-2>:测试设备开始
16:30:12 531	Layer<1-1-2-2>:测试设备成功
16:30:12 537	Layer<1-1-2-2>:下载固件开始
16:30:12 542	<LAYER 1-1-2-2> INFO:Start download image,total=1192120452,band=64
16:30:12 566	<LAYER 1-1-2-2> INFO:Start to download trust,offset=0x4000,size=4194304
16:30:12 756	<LAYER 1-1-2-2> INFO:Start to download uboot,offset=0x2000,size=4194304
16:30:12 944	<LAYER 1-1-2-2> INFO:Start to download misc,offset=0x6000,size=49152
16:30:12 955	<LAYER 1-1-2-2> INFO:Start to download resource,offset=0x8000,size=753152
16:30:12 992	<LAYER 1-1-2-2> INFO:Start to download kernel,offset=0x10000,size=19759124
16:30:13 885	<LAYER 1-1-2-2> INFO:Start to download boot,offset=0x1c000,size=1992552
16:30:13 977	<LAYER 1-1-2-2> INFO:Start to download recovery,offset=0x2c000,size=7736984
16:30:14 328	<LAYER 1-1-2-2> INFO:Start to download system,offset=0xc4000,size=1153433600
16:31:06 384	<LAYER 1-1-2-2> INFO:Start to check trust,offset=0x4000,size=4194304
16:31:06 522	<LAYER 1-1-2-2> INFO:Start to check uboot,offset=0x2000,size=4194304
16:31:06 655	<LAYER 1-1-2-2> INFO:Start to check misc,offset=0x6000,size=49152
16:31:06 672	<LAYER 1-1-2-2> INFO:Start to check resource,offset=0x8000,size=753152
16:31:06 707	<LAYER 1-1-2-2> INFO:Start to check kernel,offset=0x10000,size=19759124
16:31:07 325	<LAYER 1-1-2-2> INFO:Start to check boot,offset=0x1c000,size=1992552
16:31:07 399	<LAYER 1-1-2-2> INFO:Start to check recovery,offset=0x2c000,size=7736984
16:31:07 660	<LAYER 1-1-2-2> INFO:Start to check system,offset=0xc4000,size=1153433600
16:31:45 558	Layer<1-1-2-2>:下载固件成功
16:31:45 639	Layer<1-1-2-2>:重启设备开始
16:31:46 646	Layer<1-1-2-2>:重启设备成功
16:31:50 940	Layer<1-1-2-2>:测试设备开始
16:31:50 946	Layer<1-1-2-2>:测试设备成功
16:31:50 955	Layer<1-1-2-2>: Download resource...
16:31:51 209	Layer<1-1-2-2>: Download kernel...
16:31:54 402	Layer<1-1-2-2>: RunProc is ending, ret=1
16:32:53 657	Layer<1-1-2-2>:测试设备开始
16:32:53 668	Layer<1-1-2-2>:测试设备成功
16:32:53 679	Layer<1-1-2-2>: Download resource...
16:32:53 846	Layer<1-1-2-2>: Download kernel...
16:32:57 801	Layer<1-1-2-2>: RunProc is ending, ret=1
16:33:44 918	Layer<1-1-2-2>:测试设备开始
16:33:44 938	Layer<1-1-2-2>:测试设备成功
16:33:44 962	Layer<1-1-2-2>: Download resource...
16:33:45 137	Layer<1-1-2-2>: Download kernel...
16:33:48 606	Layer<1-1-2-2>: RunProc is ending, ret=1
16:35:06 110	Info:RunExe->cmd=netstat -ano
16:35:08 573	ERROR:GetAdbSerialno->AdbGetSerialNumber failed!
16:35:08 596	ERROR:AdbToRockusb->GetAdbSerialno failed!
16:35:08 601	Info:RunExe->cmd="\\192.168.1.186\rp-share\bill\3399\sdk-7.1\RKTools\windows\AndroidTool\AndroidTool_Release_v2.42\bin\adb.exe" reboot bootloader
16:35:13 358	* daemon not running. starting it now on port 5037 *
* daemon started successfully *
error: device not found

16:35:14 364	Info:RunExe->cmd="\\192.168.1.186\rp-share\bill\3399\sdk-7.1\RKTools\windows\AndroidTool\AndroidTool_Release_v2.42\bin\adb.exe" reboot bootloader
16:35:16 003	Layer<1-1-2-2>:测试设备开始
16:35:16 009	Layer<1-1-2-2>:测试设备成功
16:35:16 020	Layer<1-1-2-2>: Download resource...
16:35:16 305	Layer<1-1-2-2>: Download kernel...
16:35:20 534	Layer<1-1-2-2>: RunProc is ending, ret=1
16:36:09 945	Layer<1-1-2-2>:测试设备开始
16:36:09 956	Layer<1-1-2-2>:测试设备成功
16:36:09 969	Layer<1-1-2-2>: Download resource...
16:36:10 132	Layer<1-1-2-2>: Download kernel...
16:36:13 717	Layer<1-1-2-2>: RunProc is ending, ret=1
16:37:12 936	Layer<1-1-2-2>:测试设备开始
16:37:12 947	Layer<1-1-2-2>:测试设备成功
16:37:12 962	Layer<1-1-2-2>: Download resource...
16:37:13 209	Layer<1-1-2-2>: Download kernel...
16:37:17 143	Layer<1-1-2-2>: RunProc is ending, ret=1
16:38:17 942	Layer<1-1-2-2>:测试设备开始
16:38:18 017	Layer<1-1-2-2>:测试设备成功
16:38:18 027	Layer<1-1-2-2>: Download resource...
16:38:18 193	Layer<1-1-2-2>: Download kernel...
16:38:22 210	Layer<1-1-2-2>: RunProc is ending, ret=1
16:39:52 587	Layer<1-1-2-2>:测试设备开始
16:39:52 605	Layer<1-1-2-2>:测试设备成功
16:39:52 630	Layer<1-1-2-2>: Download resource...
16:39:52 796	Layer<1-1-2-2>: Download kernel...
16:39:56 684	Layer<1-1-2-2>: RunProc is ending, ret=1
16:41:57 334	Layer<1-1-2-2>:测试设备开始
16:41:57 343	Layer<1-1-2-2>:测试设备成功
16:41:57 354	Layer<1-1-2-2>: Download resource...
16:41:57 492	Layer<1-1-2-2>: Download kernel...
16:41:59 893	Layer<1-1-2-2>: RunProc is ending, ret=1
16:43:20 264	Layer<1-1-2-2>:测试设备开始
16:43:20 272	Layer<1-1-2-2>:测试设备成功
16:43:20 279	Layer<1-1-2-2>: Download resource...
16:43:20 415	Layer<1-1-2-2>: Download kernel...
16:43:22 799	Layer<1-1-2-2>: RunProc is ending, ret=1
16:44:17 362	Layer<1-1-2-2>:测试设备开始
16:44:17 370	Layer<1-1-2-2>:测试设备成功
16:44:17 381	Layer<1-1-2-2>: Download resource...
16:44:17 528	Layer<1-1-2-2>: Download kernel...
16:44:19 940	Layer<1-1-2-2>: RunProc is ending, ret=1
16:54:52 523	Layer<1-1-2-2>:测试设备开始
16:54:52 532	Layer<1-1-2-2>:测试设备成功
16:54:52 542	Layer<1-1-2-2>: Download resource...
16:54:52 737	Layer<1-1-2-2>: Download kernel...
16:54:56 217	Layer<1-1-2-2>: RunProc is ending, ret=1
16:57:39 459	Layer<1-1-2-2>:测试设备开始
16:57:39 466	Layer<1-1-2-2>:测试设备成功
16:57:39 472	Layer<1-1-2-2>:校验芯片开始
16:57:39 477	Layer<1-1-2-2>:校验芯片成功
16:57:39 481	Layer<1-1-2-2>:获取FlashInfo开始
16:57:39 486	<LAYER 1-1-2-2> INFO:FlashInfo: 00 F0 D1 01 00 04 04 00 28 00 01
16:57:39 492	<LAYER 1-1-2-2> INFO:GetFlashInfo-->Emmc storage.
16:57:39 498	Layer<1-1-2-2>:获取FlashInfo成功
16:57:39 530	Layer<1-1-2-2>:准备IDB开始
16:57:39 592	<LAYER 1-1-2-2> INFO:CS(1)		(14910MB)		(SAMSUNG)
16:57:39 605	Layer<1-1-2-2>:准备IDB成功
16:57:39 610	Layer<1-1-2-2>:下载IDB开始
16:57:39 788	Layer<1-1-2-2>:下载IDB成功
16:57:39 914	Layer<1-1-2-2>:重启设备开始
16:57:40 933	Layer<1-1-2-2>:重启设备成功
16:57:40 975	Layer<1-1-2-2>:等待Loader开始
16:57:41 636	Layer<1-1-2-2>:等待Loader成功
16:57:41 641	Layer<1-1-2-2>:测试设备开始
16:57:41 671	Layer<1-1-2-2>:测试设备成功
16:57:41 736	Layer<1-1-2-2>: Download parameter...
16:57:41 835	Layer<1-1-2-2>: Download uboot...
16:57:42 837	Layer<1-1-2-2>: Download trust...
16:57:43 840	Layer<1-1-2-2>: Download misc...
16:57:43 899	Layer<1-1-2-2>: Download resource...
16:57:44 072	Layer<1-1-2-2>: Download kernel...
16:57:47 979	Layer<1-1-2-2>: Download boot...
16:57:48 316	Layer<1-1-2-2>: Download recovery...
16:57:49 592	Layer<1-1-2-2>: DownloadSparse system...
17:01:30 800	Layer<1-1-2-2>: RunProc is ending, ret=1
17:09:30 368	Layer<1-1-2-2>:测试设备开始
17:09:30 375	Layer<1-1-2-2>:测试设备成功
17:09:30 385	Layer<1-1-2-2>: Download resource...
17:09:30 524	Layer<1-1-2-2>: Download kernel...
17:09:32 865	Layer<1-1-2-2>: RunProc is ending, ret=1
17:11:07 920	Layer<1-1-2-2>:测试设备开始
17:11:07 931	Layer<1-1-2-2>:测试设备成功
17:11:07 943	Layer<1-1-2-2>: Download resource...
17:11:08 080	Layer<1-1-2-2>: Download kernel...
17:11:10 411	Layer<1-1-2-2>: RunProc is ending, ret=1
17:12:26 009	Layer<1-1-2-2>:测试设备开始
17:12:26 019	Layer<1-1-2-2>:测试设备成功
17:12:26 033	Layer<1-1-2-2>: Download resource...
17:12:26 169	Layer<1-1-2-2>: Download kernel...
17:12:28 550	Layer<1-1-2-2>: RunProc is ending, ret=1
17:15:14 645	Layer<1-1-2-2>:测试设备开始
17:15:14 653	Layer<1-1-2-2>:测试设备成功
17:15:14 665	Layer<1-1-2-2>: Download resource...
17:15:14 795	Layer<1-1-2-2>: Download kernel...
17:15:17 155	Layer<1-1-2-2>: RunProc is ending, ret=1
17:15:58 265	Layer<1-1-2-2>:测试设备开始
17:15:58 278	Layer<1-1-2-2>:测试设备成功
17:15:58 293	Layer<1-1-2-2>: Download resource...
17:15:58 442	Layer<1-1-2-2>: Download kernel...
17:16:00 790	Layer<1-1-2-2>: RunProc is ending, ret=1
17:16:30 765	Layer<1-1-2-2>:测试设备开始
17:16:30 775	Layer<1-1-2-2>:测试设备成功
17:16:30 786	Layer<1-1-2-2>: Download resource...
17:16:30 954	Layer<1-1-2-2>: Download kernel...
17:16:33 301	Layer<1-1-2-2>: RunProc is ending, ret=1
17:19:25 971	Layer<1-1-2-2>:测试设备开始
17:19:25 985	Layer<1-1-2-2>:测试设备成功
17:19:25 997	Layer<1-1-2-2>: Download resource...
17:19:26 131	Layer<1-1-2-2>: Download kernel...
17:19:28 543	Layer<1-1-2-2>: RunProc is ending, ret=1
17:20:23 296	Layer<1-1-2-2>:测试设备开始
17:20:23 311	Layer<1-1-2-2>:测试设备成功
17:20:23 324	Layer<1-1-2-2>: Download resource...
17:20:23 454	Layer<1-1-2-2>: Download kernel...
17:20:25 853	Layer<1-1-2-2>: RunProc is ending, ret=1
17:21:53 245	Layer<1-1-2-2>:测试设备开始
17:21:53 259	Layer<1-1-2-2>:测试设备成功
17:21:53 275	Layer<1-1-2-2>: Download resource...
17:21:53 441	Layer<1-1-2-2>: Download kernel...
17:21:55 857	Layer<1-1-2-2>: RunProc is ending, ret=1
17:23:36 604	Info:RunExe->cmd=netstat -ano
17:23:38 823	ERROR:GetAdbSerialno->AdbCreateInterfaceByName failed,err=2,dev=\\?\USB#VID_2207&PID_0006#7&39CFAA1D&0&2#{f72fe0d4-cbcb-407d-8814-9ed673d0dd6b}!
17:23:38 834	ERROR:AdbToRockusb->GetAdbSerialno failed!
17:23:38 839	Info:RunExe->cmd="\\192.168.1.186\rp-share\bill\3399\sdk-7.1\RKTools\windows\AndroidTool\AndroidTool_Release_v2.42\bin\adb.exe" reboot bootloader
17:23:43 508	* daemon not running. starting it now on port 5037 *
* daemon started successfully *
error: device not found

17:23:44 518	Info:RunExe->cmd="\\192.168.1.186\rp-share\bill\3399\sdk-7.1\RKTools\windows\AndroidTool\AndroidTool_Release_v2.42\bin\adb.exe" reboot bootloader
17:23:46 336	Layer<1-1-2-2>:测试设备开始
17:23:46 344	Layer<1-1-2-2>:测试设备成功
17:23:46 354	Layer<1-1-2-2>: Download resource...
17:23:46 501	Layer<1-1-2-2>: Download kernel...
17:23:48 927	Layer<1-1-2-2>: RunProc is ending, ret=1
17:40:58 434	Info:RunExe->cmd=netstat -ano
17:41:00 470	ERROR:GetAdbSerialno->AdbCreateInterfaceByName failed,err=5,dev=\\?\USB#VID_2207&PID_0006#7&39CFAA1D&0&2#{f72fe0d4-cbcb-407d-8814-9ed673d0dd6b}!
17:41:00 477	ERROR:AdbToRockusb->GetAdbSerialno failed!
17:41:00 482	Info:RunExe->cmd="\\192.168.1.186\rp-share\bill\3399\sdk-7.1\RKTools\windows\AndroidTool\AndroidTool_Release_v2.42\bin\adb.exe" reboot bootloader
17:41:04 946	* daemon not running. starting it now on port 5037 *
* daemon started successfully *
error: device not found

17:41:05 952	Info:RunExe->cmd="\\192.168.1.186\rp-share\bill\3399\sdk-7.1\RKTools\windows\AndroidTool\AndroidTool_Release_v2.42\bin\adb.exe" reboot bootloader
17:41:09 619	Layer<1-1-2-2>:测试设备开始
17:41:09 625	Layer<1-1-2-2>:测试设备成功
17:41:09 635	Layer<1-1-2-2>: Download resource...
17:41:09 778	Layer<1-1-2-2>: Download kernel...
17:41:12 164	Layer<1-1-2-2>: RunProc is ending, ret=1
17:46:18 177	Layer<1-1-2-2>:测试设备开始
17:46:18 188	Layer<1-1-2-2>:测试设备成功
17:46:18 202	Layer<1-1-2-2>: Download resource...
17:46:18 335	Layer<1-1-2-2>: Download kernel...
17:46:20 731	Layer<1-1-2-2>: RunProc is ending, ret=1
17:48:48 803	Layer<1-1-2-2>:测试设备开始
17:48:48 812	Layer<1-1-2-2>:测试设备成功
17:48:48 822	Layer<1-1-2-2>: Download resource...
17:48:48 954	Layer<1-1-2-2>: Download kernel...
17:48:51 355	Layer<1-1-2-2>: RunProc is ending, ret=1
17:49:25 023	Layer<1-1-2-2>:测试设备开始
17:49:25 036	Layer<1-1-2-2>:测试设备成功
17:49:25 055	Layer<1-1-2-2>: Download resource...
17:49:25 190	Layer<1-1-2-2>: Download kernel...
17:49:27 543	Layer<1-1-2-2>: RunProc is ending, ret=1
17:57:23 928	Layer<1-1-2-2>:测试设备开始
17:57:23 940	Layer<1-1-2-2>:测试设备成功
17:57:23 974	Layer<1-1-2-2>: Download resource...
17:57:24 113	Layer<1-1-2-2>: Download kernel...
17:57:26 556	Layer<1-1-2-2>: RunProc is ending, ret=1
17:58:48 660	Layer<1-1-2-2>:测试设备开始
17:58:48 670	Layer<1-1-2-2>:测试设备成功
17:58:48 679	Layer<1-1-2-2>: Download resource...
17:58:48 822	Layer<1-1-2-2>: Download kernel...
17:58:51 215	Layer<1-1-2-2>: RunProc is ending, ret=1
18:02:30 449	Layer<1-1-2-2>:测试设备开始
18:02:30 460	Layer<1-1-2-2>:测试设备成功
18:02:30 475	Layer<1-1-2-2>: Download resource...
18:02:30 608	Layer<1-1-2-2>: Download kernel...
18:02:33 015	Layer<1-1-2-2>: RunProc is ending, ret=1
18:19:02 088	Layer<1-1-2-2>:测试设备开始
18:19:02 103	Layer<1-1-2-2>:测试设备成功
18:19:02 115	Layer<1-1-2-2>: Download resource...
18:19:02 260	Layer<1-1-2-2>: Download kernel...
18:19:04 789	Layer<1-1-2-2>: RunProc is ending, ret=1
18:21:38 800	Layer<1-1-2-2>:测试设备开始
18:21:38 810	Layer<1-1-2-2>:测试设备成功
18:21:38 823	Layer<1-1-2-2>: Download resource...
18:21:38 964	Layer<1-1-2-2>: Download kernel...
18:21:41 484	Layer<1-1-2-2>: RunProc is ending, ret=1
18:22:20 363	Layer<1-1-2-2>:测试设备开始
18:22:20 376	Layer<1-1-2-2>:测试设备成功
18:22:20 395	Layer<1-1-2-2>: Download resource...
18:22:20 530	Layer<1-1-2-2>: Download kernel...
18:22:22 914	Layer<1-1-2-2>: RunProc is ending, ret=1
18:28:13 643	Layer<1-1-2-2>:测试设备开始
18:28:13 653	Layer<1-1-2-2>:测试设备成功
18:28:13 664	Layer<1-1-2-2>: Download resource...
18:28:13 815	Layer<1-1-2-2>: Download kernel...
18:28:16 384	Layer<1-1-2-2>: RunProc is ending, ret=1
18:30:59 585	Layer<1-1-2-2>:测试设备开始
18:30:59 594	Layer<1-1-2-2>:测试设备成功
18:30:59 604	Layer<1-1-2-2>: Download resource...
18:30:59 744	Layer<1-1-2-2>: Download kernel...
18:31:02 319	Layer<1-1-2-2>: RunProc is ending, ret=1
18:32:51 052	Layer<1-1-2-2>:测试设备开始
18:32:51 062	Layer<1-1-2-2>:测试设备成功
18:32:51 076	Layer<1-1-2-2>: Download resource...
18:32:51 223	Layer<1-1-2-2>: Download kernel...
18:32:53 829	Layer<1-1-2-2>: RunProc is ending, ret=1
18:33:53 482	Layer<1-1-2-2>:测试设备开始
18:33:53 494	Layer<1-1-2-2>:测试设备成功
18:33:53 506	Layer<1-1-2-2>: Download resource...
18:33:53 649	Layer<1-1-2-2>: Download kernel...
18:33:56 199	Layer<1-1-2-2>: RunProc is ending, ret=1
18:35:07 925	Layer<1-1-2-2>:测试设备开始
18:35:07 938	Layer<1-1-2-2>:测试设备成功
18:35:07 957	Layer<1-1-2-2>: Download resource...
18:35:08 093	Layer<1-1-2-2>: Download kernel...
18:35:10 659	Layer<1-1-2-2>: RunProc is ending, ret=1
18:39:25 995	Layer<1-1-2-2>:测试设备开始
18:39:26 008	Layer<1-1-2-2>:测试设备成功
18:39:26 020	Layer<1-1-2-2>: Download resource...
18:39:26 162	Layer<1-1-2-2>: Download kernel...
18:39:28 748	Layer<1-1-2-2>: RunProc is ending, ret=1
18:40:24 612	Layer<1-1-2-2>:测试设备开始
18:40:24 620	Layer<1-1-2-2>:测试设备成功
18:40:24 629	Layer<1-1-2-2>: Download resource...
18:40:24 772	Layer<1-1-2-2>: Download kernel...
18:40:27 226	Layer<1-1-2-2>: RunProc is ending, ret=1
18:42:08 951	Layer<1-1-2-2>:测试设备开始
18:42:08 966	Layer<1-1-2-2>:测试设备成功
18:42:08 983	Layer<1-1-2-2>: Download resource...
18:42:09 122	Layer<1-1-2-2>: Download kernel...
18:42:11 562	Layer<1-1-2-2>: RunProc is ending, ret=1
18:44:27 434	Info:RunExe->cmd=netstat -ano
18:44:29 452	ERROR:GetAdbSerialno->AdbCreateInterfaceByName failed,err=2,dev=\\?\USB#VID_2207&PID_0006#7&39CFAA1D&0&2#{f72fe0d4-cbcb-407d-8814-9ed673d0dd6b}!
18:44:29 459	ERROR:AdbToRockusb->GetAdbSerialno failed!
18:44:29 464	Info:RunExe->cmd="\\192.168.1.186\rp-share\bill\3399\sdk-7.1\RKTools\windows\AndroidTool\AndroidTool_Release_v2.42\bin\adb.exe" reboot bootloader
18:44:33 945	* daemon not running. starting it now on port 5037 *
* daemon started successfully *
error: device not found

18:44:34 949	Info:RunExe->cmd="\\192.168.1.186\rp-share\bill\3399\sdk-7.1\RKTools\windows\AndroidTool\AndroidTool_Release_v2.42\bin\adb.exe" reboot bootloader
18:44:36 341	Layer<1-1-2-2>:测试设备开始
18:44:36 346	Layer<1-1-2-2>:测试设备成功
18:44:36 355	Layer<1-1-2-2>: Download resource...
18:44:36 484	Layer<1-1-2-2>: Download kernel...
18:44:38 867	Layer<1-1-2-2>: RunProc is ending, ret=1
