09:36:50 432	Error:CheckDownloadItem-->U:\bill\3399\sdk-7.1\u-boot\rk3399_loader_v1.08.109.bin is not existed!
09:36:52 456	Layer<>: RunProc is ending, ret=0
10:28:31 626	Layer<2-1-4>:测试设备开始
10:28:31 634	Layer<2-1-4>:测试设备成功
10:28:31 640	Layer<2-1-4>:校验芯片开始
10:28:31 647	Layer<2-1-4>:校验芯片成功
10:28:31 653	Layer<2-1-4>:获取FlashInfo开始
10:28:31 660	<LAYER 2-1-4> INFO:FlashInfo: 00 F0 D1 01 00 04 04 00 28 00 01
10:28:31 664	<LAYER 2-1-4> INFO:GetFlashInfo-->Emmc storage.
10:28:31 668	Layer<2-1-4>:获取FlashInfo成功
10:28:31 674	Layer<2-1-4>:准备IDB开始
10:28:31 677	<LAYER 2-1-4> INFO:CS(1)		(14910MB)		(SAMSUNG)
10:28:31 688	Layer<2-1-4>:准备IDB成功
10:28:31 693	Layer<2-1-4>:下载IDB开始
10:28:31 867	Layer<2-1-4>:下载IDB成功
10:28:31 874	Layer<2-1-4>:重启设备开始
10:28:32 882	Layer<2-1-4>:重启设备成功
10:28:32 890	Layer<2-1-4>:等待Loader开始
10:28:33 639	Layer<2-1-4>:等待Loader成功
10:28:33 669	Layer<2-1-4>:测试设备开始
10:28:33 703	Layer<2-1-4>:测试设备成功
10:28:33 741	Layer<2-1-4>: Download parameter...
10:28:33 828	Layer<2-1-4>: Download boot...
10:28:34 111	Layer<2-1-4>: Download trust...
10:28:34 665	Layer<2-1-4>: Download misc...
10:28:34 689	Layer<2-1-4>: Download resource...
10:28:34 822	Layer<2-1-4>: Download kernel...
10:28:37 231	Layer<2-1-4>: Download boot...
10:28:37 442	Layer<2-1-4>: Download recovery...
10:28:38 428	Layer<2-1-4>: DownloadSparse system...
10:30:54 237	Layer<2-1-4>: RunProc is ending, ret=1
10:44:33 623	Layer<2-1-4>:测试设备开始
10:44:33 635	Layer<2-1-4>:测试设备成功
10:44:33 643	Layer<2-1-4>:校验芯片开始
10:44:33 650	Layer<2-1-4>:校验芯片成功
10:44:33 657	Layer<2-1-4>:获取FlashInfo开始
10:44:33 663	<LAYER 2-1-4> INFO:FlashInfo: 00 F0 D1 01 00 04 04 00 28 00 01
10:44:33 668	<LAYER 2-1-4> INFO:GetFlashInfo-->Emmc storage.
10:44:33 674	Layer<2-1-4>:获取FlashInfo成功
10:44:33 681	Layer<2-1-4>:准备IDB开始
10:44:33 686	<LAYER 2-1-4> INFO:CS(1)		(14910MB)		(SAMSUNG)
10:44:33 697	Layer<2-1-4>:准备IDB成功
10:44:33 704	Layer<2-1-4>:下载IDB开始
10:44:34 894	Layer<2-1-4>:下载IDB成功
10:44:34 906	Layer<2-1-4>:重启设备开始
10:44:35 931	Layer<2-1-4>:重启设备成功
10:44:35 943	Layer<2-1-4>:等待Loader开始
10:44:36 674	Layer<2-1-4>:等待Loader成功
10:44:36 704	Layer<2-1-4>:测试设备开始
10:44:36 734	Layer<2-1-4>:测试设备成功
10:44:36 744	Layer<2-1-4>:下载固件开始
10:44:36 749	<LAYER 2-1-4> INFO:Start download image,total=1649366724,band=64
10:44:36 781	<LAYER 2-1-4> INFO:Start to download trust,offset=0x4000,size=4194304
10:44:36 978	<LAYER 2-1-4> INFO:Start to download uboot,offset=0x2000,size=4194304
10:44:37 162	<LAYER 2-1-4> INFO:Start to download misc,offset=0x6000,size=49152
10:44:37 173	<LAYER 2-1-4> INFO:Start to download resource,offset=0x8000,size=755712
10:44:37 209	<LAYER 2-1-4> INFO:Start to download kernel,offset=0x10000,size=19824660
10:44:38 040	<LAYER 2-1-4> INFO:Start to download boot,offset=0x1c000,size=1992156
10:44:38 124	<LAYER 2-1-4> INFO:Start to download recovery,offset=0x2c000,size=7736404
10:44:38 425	<LAYER 2-1-4> INFO:Start to download system,offset=0xb4000,size=1610612736
11:04:53 608	瑞芯微开发工具 v2.4.2.0 for android start run
11:05:48 374	Layer<2-1-4>:测试设备开始
11:05:48 386	Layer<2-1-4>:测试设备成功
11:05:48 395	Layer<2-1-4>:校验芯片开始
11:05:48 402	Layer<2-1-4>:校验芯片成功
11:05:48 408	Layer<2-1-4>:获取FlashInfo开始
11:05:48 412	<LAYER 2-1-4> INFO:FlashInfo: 00 F0 D1 01 00 04 04 00 28 00 01
11:05:48 416	<LAYER 2-1-4> INFO:GetFlashInfo-->Emmc storage.
11:05:48 422	Layer<2-1-4>:获取FlashInfo成功
11:05:48 427	Layer<2-1-4>:准备IDB开始
11:05:48 431	<LAYER 2-1-4> INFO:CS(1)		(14910MB)		(SAMSUNG)
11:05:48 450	Layer<2-1-4>:准备IDB成功
11:05:48 456	Layer<2-1-4>:下载IDB开始
11:05:48 754	Layer<2-1-4>:下载IDB成功
11:05:48 767	Layer<2-1-4>:重启设备开始
11:05:49 800	Layer<2-1-4>:重启设备成功
11:05:49 816	Layer<2-1-4>:等待Loader开始
11:05:50 534	Layer<2-1-4>:等待Loader成功
11:05:50 588	Layer<2-1-4>:测试设备开始
11:05:50 603	Layer<2-1-4>:测试设备成功
11:05:50 615	Layer<2-1-4>: Download parameter...
11:05:50 675	Layer<2-1-4>: Download uboot...
11:05:51 217	Layer<2-1-4>: Download trust...
11:05:51 759	Layer<2-1-4>: Download misc...
11:05:51 782	Layer<2-1-4>: Download resource...
11:05:51 998	Layer<2-1-4>: Download kernel...
11:05:54 419	Layer<2-1-4>: Download boot...
11:05:54 703	Layer<2-1-4>: Download recovery...
11:05:55 683	Layer<2-1-4>: RunProc is ending, ret=1
11:07:31 799	Info:RunExe->cmd=netstat -ano
11:07:34 793	Info:RunExe->cmd="\\192.168.1.186\rp-share\bill\3399\sdk-7.1\RKTools\windows\AndroidTool\AndroidTool_Release_v2.42\bin\adb.exe" reboot bootloader
11:07:39 702	* daemon not running. starting it now on port 5037 *
* daemon started successfully *
error: device not found

11:07:40 708	Info:RunExe->cmd="\\192.168.1.186\rp-share\bill\3399\sdk-7.1\RKTools\windows\AndroidTool\AndroidTool_Release_v2.42\bin\adb.exe" reboot bootloader
11:07:47 643	Layer<2-1-4>:测试设备开始
11:07:47 649	Layer<2-1-4>:测试设备成功
11:07:47 654	Layer<2-1-4>:校验芯片开始
11:07:47 660	Layer<2-1-4>:校验芯片成功
11:07:47 665	Layer<2-1-4>:获取FlashInfo开始
11:07:47 669	<LAYER 2-1-4> INFO:FlashInfo: 00 F0 D1 01 00 04 04 00 28 00 01
11:07:47 674	<LAYER 2-1-4> INFO:GetFlashInfo-->Emmc storage.
11:07:47 679	Layer<2-1-4>:获取FlashInfo成功
11:07:47 684	Layer<2-1-4>:准备IDB开始
11:07:47 688	<LAYER 2-1-4> INFO:CS(1)		(14910MB)		(SAMSUNG)
11:07:47 699	Layer<2-1-4>:准备IDB成功
11:07:47 705	Layer<2-1-4>:下载IDB开始
11:07:47 874	Layer<2-1-4>:下载IDB成功
11:07:47 880	Layer<2-1-4>:重启设备开始
11:07:48 888	Layer<2-1-4>:重启设备成功
11:07:48 895	Layer<2-1-4>:等待Loader开始
11:07:49 617	Layer<2-1-4>:等待Loader成功
11:07:49 626	Layer<2-1-4>:测试设备开始
11:07:49 635	Layer<2-1-4>:测试设备成功
11:07:49 644	Layer<2-1-4>: Download parameter...
11:07:49 701	Layer<2-1-4>: Download uboot...
11:07:50 240	Layer<2-1-4>: Download trust...
11:07:50 778	Layer<2-1-4>: Download misc...
11:07:50 801	Layer<2-1-4>: Download resource...
11:07:50 941	Layer<2-1-4>: Download kernel...
11:07:53 339	Layer<2-1-4>: Download boot...
11:07:53 620	Layer<2-1-4>: Download recovery...
11:07:54 681	Layer<2-1-4>: DownloadSparse system...
11:10:11 988	Layer<2-1-4>: RunProc is ending, ret=1
11:13:09 980	Layer<2-1-4>:测试设备开始
11:13:09 987	Layer<2-1-4>:测试设备成功
11:13:09 996	Layer<2-1-4>: Download resource...
11:13:10 122	Layer<2-1-4>: Download kernel...
11:13:12 466	Layer<2-1-4>: RunProc is ending, ret=1
11:14:02 939	Info:RunExe->cmd=netstat -ano
11:14:05 862	ERROR:GetAdbSerialno->AdbCreateInterfaceByName failed,err=2,dev=\\?\USB#VID_2207&PID_0011&MI_01#7&2520BE34&0&0001#{f72fe0d4-cbcb-407d-8814-9ed673d0dd6b}!
11:14:05 870	ERROR:AdbToRockusb->GetAdbSerialno failed!
11:14:05 874	Info:RunExe->cmd="\\192.168.1.186\rp-share\bill\3399\sdk-7.1\RKTools\windows\AndroidTool\AndroidTool_Release_v2.42\bin\adb.exe" reboot bootloader
11:14:10 372	* daemon not running. starting it now on port 5037 *
* daemon started successfully *
error: device not found

11:14:11 377	Info:RunExe->cmd="\\192.168.1.186\rp-share\bill\3399\sdk-7.1\RKTools\windows\AndroidTool\AndroidTool_Release_v2.42\bin\adb.exe" reboot bootloader
11:14:26 769	Layer<2-1-4>:测试设备开始
11:14:26 779	Layer<2-1-4>:测试设备成功
11:14:26 790	Layer<2-1-4>:校验芯片开始
11:14:26 796	Layer<2-1-4>:校验芯片成功
11:14:26 801	Layer<2-1-4>:获取FlashInfo开始
11:14:26 806	<LAYER 2-1-4> INFO:FlashInfo: 00 F0 D1 01 00 04 04 00 28 00 01
11:14:26 810	<LAYER 2-1-4> INFO:GetFlashInfo-->Emmc storage.
11:14:26 816	Layer<2-1-4>:获取FlashInfo成功
11:14:26 821	Layer<2-1-4>:准备IDB开始
11:14:26 826	<LAYER 2-1-4> INFO:CS(1)		(14910MB)		(SAMSUNG)
11:14:26 835	Layer<2-1-4>:准备IDB成功
11:14:26 841	Layer<2-1-4>:下载IDB开始
11:14:28 009	Layer<2-1-4>:下载IDB成功
11:14:28 016	Layer<2-1-4>:重启设备开始
11:14:29 028	Layer<2-1-4>:重启设备成功
11:14:29 037	Layer<2-1-4>:等待Loader开始
11:14:29 714	Layer<2-1-4>:等待Loader成功
11:14:29 758	Layer<2-1-4>:测试设备开始
11:14:29 777	Layer<2-1-4>:测试设备成功
11:14:29 787	Layer<2-1-4>:下载固件开始
11:14:29 813	<LAYER 2-1-4> INFO:Start download image,total=1649366724,band=64
11:14:29 846	<LAYER 2-1-4> INFO:Start to download trust,offset=0x4000,size=4194304
11:14:30 401	<LAYER 2-1-4> INFO:Start to download uboot,offset=0x2000,size=4194304
11:14:30 860	<LAYER 2-1-4> INFO:Start to download misc,offset=0x6000,size=49152
11:14:31 027	<LAYER 2-1-4> INFO:Start to download resource,offset=0x8000,size=755712
11:14:31 061	<LAYER 2-1-4> INFO:Start to download kernel,offset=0x10000,size=19824660
11:14:32 791	<LAYER 2-1-4> INFO:Start to download boot,offset=0x1c000,size=1992156
11:14:33 026	<LAYER 2-1-4> INFO:Start to download recovery,offset=0x2c000,size=7736404
11:14:33 796	<LAYER 2-1-4> INFO:Start to download system,offset=0xb4000,size=1610612736
11:15:59 782	<LAYER 2-1-4> INFO:Start to check trust,offset=0x4000,size=4194304
11:15:59 919	<LAYER 2-1-4> INFO:Start to check uboot,offset=0x2000,size=4194304
11:16:00 059	<LAYER 2-1-4> INFO:Start to check misc,offset=0x6000,size=49152
11:16:00 076	<LAYER 2-1-4> INFO:Start to check resource,offset=0x8000,size=755712
11:16:00 109	<LAYER 2-1-4> INFO:Start to check kernel,offset=0x10000,size=19824660
11:16:00 793	<LAYER 2-1-4> INFO:Start to check boot,offset=0x1c000,size=1992156
11:16:00 865	<LAYER 2-1-4> INFO:Start to check recovery,offset=0x2c000,size=7736404
11:16:01 140	<LAYER 2-1-4> INFO:Start to check system,offset=0xb4000,size=1610612736
11:16:40 870	Layer<2-1-4>:下载固件成功
11:16:40 878	Layer<2-1-4>:重启设备开始
11:16:41 886	Layer<2-1-4>:重启设备成功
11:17:32 022	Info:RunExe->cmd=netstat -ano
11:17:34 863	ERROR:GetAdbSerialno->AdbCreateInterfaceByName failed,err=5,dev=\\?\USB#VID_2207&PID_0006#6&304CF1AC&0&4#{f72fe0d4-cbcb-407d-8814-9ed673d0dd6b}!
11:17:34 871	ERROR:AdbToRockusb->GetAdbSerialno failed!
11:17:34 876	Info:RunExe->cmd="\\192.168.1.186\rp-share\bill\3399\sdk-7.1\RKTools\windows\AndroidTool\AndroidTool_Release_v2.42\bin\adb.exe" reboot bootloader
11:17:41 915	Layer<2-1-4>:测试设备开始
11:17:41 921	Layer<2-1-4>:测试设备成功
11:17:41 930	Layer<2-1-4>: Download resource...
11:17:42 055	Layer<2-1-4>: Download kernel...
11:17:44 393	Layer<2-1-4>: RunProc is ending, ret=1
11:20:33 556	Info:RunExe->cmd=netstat -ano
11:20:35 613	ERROR:GetAdbSerialno->AdbCreateInterfaceByName failed,err=5,dev=\\?\USB#VID_2207&PID_0006#6&304CF1AC&0&4#{f72fe0d4-cbcb-407d-8814-9ed673d0dd6b}!
11:20:35 622	ERROR:AdbToRockusb->GetAdbSerialno failed!
11:20:35 651	Info:RunExe->cmd="\\192.168.1.186\rp-share\bill\3399\sdk-7.1\RKTools\windows\AndroidTool\AndroidTool_Release_v2.42\bin\adb.exe" reboot bootloader
11:20:42 746	Layer<2-1-4>:测试设备开始
11:20:42 750	Layer<2-1-4>:测试设备成功
11:20:42 755	Layer<2-1-4>:校验芯片开始
11:20:42 760	Layer<2-1-4>:校验芯片成功
11:20:42 765	Layer<2-1-4>:获取FlashInfo开始
11:20:42 769	<LAYER 2-1-4> INFO:FlashInfo: 00 F0 D1 01 00 04 04 00 28 00 01
11:20:42 772	<LAYER 2-1-4> INFO:GetFlashInfo-->Emmc storage.
11:20:42 776	Layer<2-1-4>:获取FlashInfo成功
11:20:42 780	Layer<2-1-4>:准备IDB开始
11:20:42 783	<LAYER 2-1-4> INFO:CS(1)		(14910MB)		(SAMSUNG)
11:20:42 793	Layer<2-1-4>:准备IDB成功
11:20:42 798	Layer<2-1-4>:下载IDB开始
11:20:42 966	Layer<2-1-4>:下载IDB成功
11:20:42 973	Layer<2-1-4>:重启设备开始
11:20:43 982	Layer<2-1-4>:重启设备成功
11:20:43 989	Layer<2-1-4>:等待Loader开始
11:20:44 700	Layer<2-1-4>:等待Loader成功
11:20:44 737	Layer<2-1-4>:测试设备开始
11:20:44 747	Layer<2-1-4>:测试设备成功
11:20:44 756	Layer<2-1-4>:下载固件开始
11:20:44 761	<LAYER 2-1-4> INFO:Start download image,total=1649362116,band=64
11:20:44 791	<LAYER 2-1-4> INFO:Start to download trust,offset=0x4000,size=4194304
11:20:44 952	<LAYER 2-1-4> INFO:Start to download uboot,offset=0x2000,size=4194304
11:20:45 124	<LAYER 2-1-4> INFO:Start to download misc,offset=0x6000,size=49152
11:20:45 134	<LAYER 2-1-4> INFO:Start to download resource,offset=0x8000,size=751104
11:20:45 174	<LAYER 2-1-4> INFO:Start to download kernel,offset=0x10000,size=19824660
11:20:45 941	<LAYER 2-1-4> INFO:Start to download boot,offset=0x1c000,size=1992156
11:20:46 029	<LAYER 2-1-4> INFO:Start to download recovery,offset=0x2c000,size=7736404
11:20:46 354	<LAYER 2-1-4> INFO:Start to download system,offset=0xb4000,size=1610612736
11:21:38 012	<LAYER 2-1-4> INFO:Start to check trust,offset=0x4000,size=4194304
11:21:38 167	<LAYER 2-1-4> INFO:Start to check uboot,offset=0x2000,size=4194304
11:21:38 305	<LAYER 2-1-4> INFO:Start to check misc,offset=0x6000,size=49152
11:21:38 315	<LAYER 2-1-4> INFO:Start to check resource,offset=0x8000,size=751104
11:21:38 346	<LAYER 2-1-4> INFO:Start to check kernel,offset=0x10000,size=19824660
11:21:38 975	<LAYER 2-1-4> INFO:Start to check boot,offset=0x1c000,size=1992156
11:21:39 042	<LAYER 2-1-4> INFO:Start to check recovery,offset=0x2c000,size=7736404
11:21:39 307	<LAYER 2-1-4> INFO:Start to check system,offset=0xb4000,size=1610612736
11:22:18 223	Layer<2-1-4>:下载固件成功
11:22:18 232	Layer<2-1-4>:重启设备开始
11:22:19 239	Layer<2-1-4>:重启设备成功
11:25:32 030	Info:RunExe->cmd=netstat -ano
11:25:34 690	Info:RunExe->cmd="\\192.168.1.186\rp-share\bill\3399\sdk-7.1\RKTools\windows\AndroidTool\AndroidTool_Release_v2.42\bin\adb.exe" reboot bootloader
11:25:39 365	* daemon not running. starting it now on port 5037 *
* daemon started successfully *
error: device not found

11:25:40 370	Info:RunExe->cmd="\\192.168.1.186\rp-share\bill\3399\sdk-7.1\RKTools\windows\AndroidTool\AndroidTool_Release_v2.42\bin\adb.exe" reboot bootloader
11:25:44 563	Layer<2-1-4>:测试设备开始
11:25:44 569	Layer<2-1-4>:测试设备成功
11:25:44 579	Layer<2-1-4>: Download resource...
11:25:44 753	Layer<2-1-4>: Download kernel...
11:25:47 128	Layer<2-1-4>: RunProc is ending, ret=1
11:26:31 010	Layer<2-1-4>:测试设备开始
11:26:31 017	Layer<2-1-4>:测试设备成功
11:26:31 025	Layer<2-1-4>: Download resource...
11:26:31 154	Layer<2-1-4>: Download kernel...
11:26:33 550	Layer<2-1-4>: RunProc is ending, ret=1
11:27:51 737	Layer<2-1-4>:测试设备开始
11:27:51 744	Layer<2-1-4>:测试设备成功
11:27:51 753	Layer<2-1-4>: Download resource...
11:27:51 880	Layer<2-1-4>: Download kernel...
11:27:54 218	Layer<2-1-4>: RunProc is ending, ret=1
11:29:09 131	Layer<2-1-4>:测试设备开始
11:29:09 140	Layer<2-1-4>:测试设备成功
11:29:09 149	Layer<2-1-4>: Download resource...
11:29:09 274	Layer<2-1-4>: Download kernel...
11:29:11 611	Layer<2-1-4>: RunProc is ending, ret=1
11:29:51 688	Layer<2-1-4>:测试设备开始
11:29:51 766	Layer<2-1-4>:测试设备成功
11:29:51 821	Layer<2-1-4>: Download resource...
11:29:52 031	Layer<2-1-4>: Download kernel...
11:29:54 369	Layer<2-1-4>: RunProc is ending, ret=1
11:31:39 209	Layer<2-1-4>:测试设备开始
11:31:39 219	Layer<2-1-4>:测试设备成功
11:31:39 228	Layer<2-1-4>: Download resource...
11:31:39 353	Layer<2-1-4>: Download kernel...
11:31:41 695	Layer<2-1-4>: RunProc is ending, ret=1
11:32:37 380	Layer<2-1-4>:测试设备开始
11:32:37 387	Layer<2-1-4>:测试设备成功
11:32:37 396	Layer<2-1-4>: Download resource...
11:32:37 530	Layer<2-1-4>: Download kernel...
11:32:39 864	Layer<2-1-4>: RunProc is ending, ret=1
11:35:21 430	Layer<2-1-4>:测试设备开始
11:35:21 507	Layer<2-1-4>:测试设备成功
11:35:21 550	Layer<2-1-4>: Download resource...
11:35:21 756	Layer<2-1-4>: Download kernel...
11:35:24 115	Layer<2-1-4>: RunProc is ending, ret=1
11:35:46 138	Layer<2-1-4>:测试设备开始
11:35:46 146	Layer<2-1-4>:测试设备成功
11:35:46 155	Layer<2-1-4>: Download resource...
11:35:46 290	Layer<2-1-4>: Download kernel...
11:35:48 627	Layer<2-1-4>: RunProc is ending, ret=1
11:36:49 146	Info:RunExe->cmd=netstat -ano
11:36:51 998	ERROR:GetAdbSerialno->AdbCreateInterfaceByName failed,err=2,dev=\\?\USB#VID_2207&PID_0006#6&304CF1AC&0&4#{f72fe0d4-cbcb-407d-8814-9ed673d0dd6b}!
11:36:52 006	ERROR:AdbToRockusb->GetAdbSerialno failed!
11:36:52 011	Info:RunExe->cmd="\\192.168.1.186\rp-share\bill\3399\sdk-7.1\RKTools\windows\AndroidTool\AndroidTool_Release_v2.42\bin\adb.exe" reboot bootloader
11:36:56 499	* daemon not running. starting it now on port 5037 *
* daemon started successfully *
error: device not found

11:36:57 504	Info:RunExe->cmd="\\192.168.1.186\rp-share\bill\3399\sdk-7.1\RKTools\windows\AndroidTool\AndroidTool_Release_v2.42\bin\adb.exe" reboot bootloader
11:36:59 403	Layer<2-1-4>:测试设备开始
11:36:59 409	Layer<2-1-4>:测试设备成功
11:36:59 417	Layer<2-1-4>: Download resource...
11:36:59 543	Layer<2-1-4>: Download kernel...
11:37:01 890	Layer<2-1-4>: RunProc is ending, ret=1
11:37:13 823	Layer<2-1-4>:测试设备开始
11:37:13 831	Layer<2-1-4>:测试设备成功
11:37:13 837	Layer<2-1-4>: Download resource...
11:37:13 898	Layer<2-1-4>: Download kernel...
11:37:15 184	Layer<2-1-4>: RunProc is ending, ret=1
11:37:57 869	Layer<2-1-4>:测试设备开始
11:37:57 876	Layer<2-1-4>:测试设备成功
11:37:57 885	Layer<2-1-4>: Download resource...
11:37:58 011	Layer<2-1-4>: Download kernel...
11:38:00 355	Layer<2-1-4>: RunProc is ending, ret=1
11:39:38 274	Info:RunExe->cmd=netstat -ano
11:39:41 316	Info:RunExe->cmd="\\192.168.1.186\rp-share\bill\3399\sdk-7.1\RKTools\windows\AndroidTool\AndroidTool_Release_v2.42\bin\adb.exe" reboot bootloader
11:39:45 786	* daemon not running. starting it now on port 5037 *
* daemon started successfully *
error: device not found

11:39:46 790	Info:RunExe->cmd="\\192.168.1.186\rp-share\bill\3399\sdk-7.1\RKTools\windows\AndroidTool\AndroidTool_Release_v2.42\bin\adb.exe" reboot bootloader
11:44:17 075	Layer<2-1-4>:测试设备开始
11:44:17 083	Layer<2-1-4>:测试设备成功
11:44:17 088	Layer<2-1-4>:校验芯片开始
11:44:17 093	Layer<2-1-4>:校验芯片成功
11:44:17 099	Layer<2-1-4>:获取FlashInfo开始
11:44:17 104	<LAYER 2-1-4> INFO:FlashInfo: 00 F0 D1 01 00 04 04 00 28 00 01
11:44:17 110	<LAYER 2-1-4> INFO:GetFlashInfo-->Emmc storage.
11:44:17 116	Layer<2-1-4>:获取FlashInfo成功
11:44:17 123	Layer<2-1-4>:准备IDB开始
11:44:17 132	<LAYER 2-1-4> INFO:CS(1)		(14910MB)		(SAMSUNG)
11:44:17 174	Layer<2-1-4>:准备IDB成功
11:44:17 217	Layer<2-1-4>:下载IDB开始
11:44:17 424	Layer<2-1-4>:下载IDB成功
11:44:17 441	Layer<2-1-4>:重启设备开始
11:44:18 452	Layer<2-1-4>:重启设备成功
11:44:18 460	Layer<2-1-4>:等待Loader开始
11:44:19 141	Layer<2-1-4>:等待Loader成功
11:44:19 157	Layer<2-1-4>:测试设备开始
11:44:19 190	Layer<2-1-4>:测试设备成功
11:44:19 204	Layer<2-1-4>: Download parameter...
11:44:19 269	Layer<2-1-4>: Download uboot...
11:44:19 809	Layer<2-1-4>: Download trust...
11:44:20 347	Layer<2-1-4>: Download misc...
11:44:20 369	Layer<2-1-4>: Download resource...
11:44:20 498	Layer<2-1-4>: Download kernel...
11:44:22 901	Layer<2-1-4>: Download boot...
11:44:23 182	Layer<2-1-4>: Download recovery...
11:44:24 157	Layer<2-1-4>: DownloadSparse system...
11:46:41 593	Layer<2-1-4>: RunProc is ending, ret=1
11:47:50 898	Info:RunExe->cmd=netstat -ano
11:47:53 760	ERROR:GetAdbSerialno->AdbCreateInterfaceByName failed,err=2,dev=\\?\USB#VID_2207&PID_0011&MI_01#7&2520BE34&0&0001#{f72fe0d4-cbcb-407d-8814-9ed673d0dd6b}!
11:47:53 768	ERROR:AdbToRockusb->GetAdbSerialno failed!
11:47:53 773	Info:RunExe->cmd="\\192.168.1.186\rp-share\bill\3399\sdk-7.1\RKTools\windows\AndroidTool\AndroidTool_Release_v2.42\bin\adb.exe" reboot bootloader
11:47:58 259	* daemon not running. starting it now on port 5037 *
* daemon started successfully *
error: device not found

11:47:59 261	Info:RunExe->cmd="\\192.168.1.186\rp-share\bill\3399\sdk-7.1\RKTools\windows\AndroidTool\AndroidTool_Release_v2.42\bin\adb.exe" reboot bootloader
11:48:25 607	Layer<2-1-4>:测试设备开始
11:48:25 617	Layer<2-1-4>:测试设备成功
11:48:25 627	Layer<2-1-4>: Download resource...
11:48:25 757	Layer<2-1-4>: Download kernel...
11:48:28 195	Layer<2-1-4>: RunProc is ending, ret=1
14:29:56 856	Layer<2-1-4>:测试设备开始
14:29:56 901	Layer<2-1-4>:测试设备成功
14:29:56 909	Layer<2-1-4>:校验芯片开始
14:29:56 920	Layer<2-1-4>:校验芯片成功
14:29:56 927	Layer<2-1-4>:获取FlashInfo开始
14:29:56 932	<LAYER 2-1-4> INFO:FlashInfo: 00 F0 D1 01 00 04 04 00 28 00 01
14:29:56 936	<LAYER 2-1-4> INFO:GetFlashInfo-->Emmc storage.
14:29:56 943	Layer<2-1-4>:获取FlashInfo成功
14:29:56 949	Layer<2-1-4>:准备IDB开始
14:29:56 953	<LAYER 2-1-4> INFO:CS(1)		(14910MB)		(SAMSUNG)
14:29:56 963	Layer<2-1-4>:准备IDB成功
14:29:56 969	Layer<2-1-4>:下载IDB开始
14:29:57 157	Layer<2-1-4>:下载IDB成功
14:29:57 166	Layer<2-1-4>:重启设备开始
14:29:58 174	Layer<2-1-4>:重启设备成功
14:29:58 181	Layer<2-1-4>:等待Loader开始
14:29:58 671	Layer<2-1-4>:等待Loader成功
14:29:58 717	Layer<2-1-4>:测试设备开始
14:29:58 755	Layer<2-1-4>:测试设备成功
14:29:58 774	Layer<2-1-4>: Download parameter...
14:29:58 869	Layer<2-1-4>: Download uboot...
14:29:59 420	Layer<2-1-4>: Download trust...
14:29:59 959	Layer<2-1-4>: Download misc...
14:29:59 987	Layer<2-1-4>: Download resource...
14:30:00 118	Layer<2-1-4>: Download kernel...
14:30:02 522	Layer<2-1-4>: Download boot...
14:30:02 803	Layer<2-1-4>: Download recovery...
14:30:03 787	Layer<2-1-4>: DownloadSparse system...
14:32:20 659	Layer<2-1-4>: RunProc is ending, ret=1
14:42:06 838	Info:RunExe->cmd=netstat -ano
14:42:08 842	ERROR:GetAdbSerialno->AdbCreateInterfaceByName failed,err=5,dev=\\?\USB#VID_2207&PID_0006#6&304CF1AC&0&4#{f72fe0d4-cbcb-407d-8814-9ed673d0dd6b}!
14:42:08 849	ERROR:AdbToRockusb->GetAdbSerialno failed!
14:42:08 857	Info:RunExe->cmd="\\192.168.1.186\rp-share\bill\3399\sdk-7.1\RKTools\windows\AndroidTool\AndroidTool_Release_v2.42\bin\adb.exe" reboot bootloader
14:45:20 077	Layer<2-1-4>:测试设备开始
14:45:20 112	Layer<2-1-4>:测试设备成功
14:45:20 127	Layer<2-1-4>: Download resource...
14:45:20 259	Layer<2-1-4>: Download kernel...
14:45:22 692	Layer<2-1-4>: Download boot...
14:45:22 989	Layer<2-1-4>: RunProc is ending, ret=1
14:46:30 252	Info:RunExe->cmd=netstat -ano
14:46:32 509	ERROR:GetAdbSerialno->AdbCreateInterfaceByName failed,err=5,dev=\\?\USB#VID_2207&PID_0006#6&304CF1AC&0&4#{f72fe0d4-cbcb-407d-8814-9ed673d0dd6b}!
14:46:32 516	ERROR:AdbToRockusb->GetAdbSerialno failed!
14:46:32 521	Info:RunExe->cmd="\\192.168.1.186\rp-share\bill\3399\sdk-7.1\RKTools\windows\AndroidTool\AndroidTool_Release_v2.42\bin\adb.exe" reboot bootloader
14:46:45 580	Layer<2-1-4>:测试设备开始
14:46:45 586	Layer<2-1-4>:测试设备成功
14:46:45 595	Layer<2-1-4>: Download resource...
14:46:45 721	Layer<2-1-4>: Download kernel...
14:46:48 128	Layer<2-1-4>: Download boot...
14:46:49 400	Layer<2-1-4>: RunProc is ending, ret=1
14:47:42 372	Layer<2-1-4>:测试设备开始
14:47:42 381	Layer<2-1-4>:测试设备成功
14:47:42 394	Layer<2-1-4>: Download resource...
14:47:42 537	Layer<2-1-4>: Download kernel...
14:47:44 945	Layer<2-1-4>: Download boot...
14:47:45 234	Layer<2-1-4>: RunProc is ending, ret=1
15:05:13 477	Layer<2-1-4>:测试设备开始
15:05:13 485	Layer<2-1-4>:测试设备成功
15:05:13 491	Layer<2-1-4>:校验芯片开始
15:05:13 500	Layer<2-1-4>:校验芯片成功
15:05:13 507	Layer<2-1-4>:获取FlashInfo开始
15:05:13 513	<LAYER 2-1-4> INFO:FlashInfo: 00 F0 D1 01 00 04 04 00 28 00 01
15:05:13 517	<LAYER 2-1-4> INFO:GetFlashInfo-->Emmc storage.
15:05:13 523	Layer<2-1-4>:获取FlashInfo成功
15:05:13 529	Layer<2-1-4>:准备IDB开始
15:05:13 533	<LAYER 2-1-4> INFO:CS(1)		(14910MB)		(SAMSUNG)
15:05:13 543	Layer<2-1-4>:准备IDB成功
15:05:13 549	Layer<2-1-4>:下载IDB开始
15:05:14 718	Layer<2-1-4>:下载IDB成功
15:05:14 723	Layer<2-1-4>:重启设备开始
15:05:15 751	Layer<2-1-4>:重启设备成功
15:05:15 762	Layer<2-1-4>:等待Loader开始
15:05:16 457	Layer<2-1-4>:等待Loader成功
15:05:16 522	Layer<2-1-4>:测试设备开始
15:05:16 546	Layer<2-1-4>:测试设备成功
15:05:16 555	Layer<2-1-4>:下载固件开始
15:05:16 627	<LAYER 2-1-4> INFO:Start download image,total=1647870368,band=64
15:05:16 654	<LAYER 2-1-4> INFO:Start to download trust,offset=0x4000,size=4194304
15:05:16 898	<LAYER 2-1-4> INFO:Start to download uboot,offset=0x2000,size=4194304
15:05:17 083	<LAYER 2-1-4> INFO:Start to download misc,offset=0x6000,size=49152
15:05:17 094	<LAYER 2-1-4> INFO:Start to download resource,offset=0x8000,size=748032
15:05:17 130	<LAYER 2-1-4> INFO:Start to download kernel,offset=0x10000,size=18590268
15:05:17 887	<LAYER 2-1-4> INFO:Start to download boot,offset=0x1c000,size=1990424
15:05:17 977	<LAYER 2-1-4> INFO:Start to download recovery,offset=0x2c000,size=7483852
15:05:18 297	<LAYER 2-1-4> INFO:Start to download system,offset=0xb4000,size=1610612736
15:06:30 924	<LAYER 2-1-4> INFO:Start to check trust,offset=0x4000,size=4194304
15:06:31 122	<LAYER 2-1-4> INFO:Start to check uboot,offset=0x2000,size=4194304
15:06:31 271	<LAYER 2-1-4> INFO:Start to check misc,offset=0x6000,size=49152
15:06:31 285	<LAYER 2-1-4> INFO:Start to check resource,offset=0x8000,size=748032
15:06:31 320	<LAYER 2-1-4> INFO:Start to check kernel,offset=0x10000,size=18590268
15:06:31 951	<LAYER 2-1-4> INFO:Start to check boot,offset=0x1c000,size=1990424
15:06:32 036	<LAYER 2-1-4> INFO:Start to check recovery,offset=0x2c000,size=7483852
15:06:32 301	<LAYER 2-1-4> INFO:Start to check system,offset=0xb4000,size=1610612736
15:07:26 582	Layer<2-1-4>:下载固件成功
15:07:26 591	Layer<2-1-4>:重启设备开始
15:07:27 600	Layer<2-1-4>:重启设备成功
15:10:00 495	Layer<2-1-4>:测试设备开始
15:10:00 503	Layer<2-1-4>:测试设备成功
15:10:00 537	Layer<2-1-4>: Download resource...
15:10:00 661	Layer<2-1-4>: RunProc is ending, ret=1
15:10:39 575	Layer<2-1-4>:测试设备开始
15:10:39 583	Layer<2-1-4>:测试设备成功
15:10:39 595	Layer<2-1-4>: Download resource...
15:10:39 735	Layer<2-1-4>: Download kernel...
15:10:41 905	Layer<2-1-4>: RunProc is ending, ret=1
15:14:49 086	Info:RunExe->cmd=netstat -ano
15:14:50 852	ERROR:GetAdbSerialno->AdbCreateInterfaceByName failed,err=5,dev=\\?\USB#VID_2207&PID_0006#6&304CF1AC&0&4#{f72fe0d4-cbcb-407d-8814-9ed673d0dd6b}!
15:14:50 858	ERROR:AdbToRockusb->GetAdbSerialno failed!
15:14:50 865	Info:RunExe->cmd="\\192.168.1.186\rp-share\bill\3399\sdk-7.1\RKTools\windows\AndroidTool\AndroidTool_Release_v2.42\bin\adb.exe" reboot bootloader
15:14:55 791	* daemon not running. starting it now on port 5037 *
* daemon started successfully *
error: device not found

15:14:56 796	Info:RunExe->cmd="\\192.168.1.186\rp-share\bill\3399\sdk-7.1\RKTools\windows\AndroidTool\AndroidTool_Release_v2.42\bin\adb.exe" reboot bootloader
15:14:59 684	Layer<2-1-4>:测试设备开始
15:14:59 689	Layer<2-1-4>:测试设备成功
15:14:59 700	Layer<2-1-4>: Download resource...
15:14:59 826	Layer<2-1-4>: Download kernel...
15:15:02 024	Layer<2-1-4>: RunProc is ending, ret=1
15:15:49 774	Layer<2-1-4>:测试设备开始
15:15:49 783	Layer<2-1-4>:测试设备成功
15:15:49 796	Layer<2-1-4>: Download resource...
15:15:49 941	Layer<2-1-4>: Download kernel...
15:15:52 179	Layer<2-1-4>: RunProc is ending, ret=1
15:22:29 917	Layer<2-1-4>:测试设备开始
15:22:29 927	Layer<2-1-4>:测试设备成功
15:22:29 941	Layer<2-1-4>: Download resource...
15:22:30 077	Layer<2-1-4>: Download kernel...
15:22:32 310	Layer<2-1-4>: RunProc is ending, ret=1
15:27:42 674	Layer<2-1-4>:测试设备开始
15:27:42 682	Layer<2-1-4>:测试设备成功
15:27:42 688	Layer<2-1-4>:校验芯片开始
15:27:42 696	Layer<2-1-4>:校验芯片成功
15:27:42 703	Layer<2-1-4>:获取FlashInfo开始
15:27:42 708	<LAYER 2-1-4> INFO:FlashInfo: 00 F0 D1 01 00 04 04 00 28 00 01
15:27:42 713	<LAYER 2-1-4> INFO:GetFlashInfo-->Emmc storage.
15:27:42 719	Layer<2-1-4>:获取FlashInfo成功
15:27:42 725	Layer<2-1-4>:准备IDB开始
15:27:42 729	<LAYER 2-1-4> INFO:CS(1)		(14910MB)		(SAMSUNG)
15:27:42 742	Layer<2-1-4>:准备IDB成功
15:27:42 749	Layer<2-1-4>:下载IDB开始
15:27:42 933	Layer<2-1-4>:下载IDB成功
15:27:42 938	Layer<2-1-4>:重启设备开始
15:27:43 952	Layer<2-1-4>:重启设备成功
15:27:43 960	Layer<2-1-4>:等待Loader开始
15:27:44 702	Layer<2-1-4>:等待Loader成功
15:27:44 733	Layer<2-1-4>:测试设备开始
15:27:44 743	Layer<2-1-4>:测试设备成功
15:27:44 752	Layer<2-1-4>:下载固件开始
15:27:44 766	<LAYER 2-1-4> INFO:Start download image,total=1647871416,band=64
15:27:44 796	<LAYER 2-1-4> INFO:Start to download trust,offset=0x4000,size=4194304
15:27:45 324	<LAYER 2-1-4> INFO:Start to download uboot,offset=0x2000,size=4194304
15:27:45 770	<LAYER 2-1-4> INFO:Start to download misc,offset=0x6000,size=49152
15:27:45 799	<LAYER 2-1-4> INFO:Start to download resource,offset=0x8000,size=748032
15:27:45 854	<LAYER 2-1-4> INFO:Start to download kernel,offset=0x10000,size=18590908
15:27:47 502	<LAYER 2-1-4> INFO:Start to download boot,offset=0x1c000,size=1990712
15:27:47 637	<LAYER 2-1-4> INFO:Start to download recovery,offset=0x2c000,size=7483972
15:27:48 505	<LAYER 2-1-4> INFO:Start to download system,offset=0xb4000,size=1610612736
15:30:06 558	<LAYER 2-1-4> INFO:Start to check trust,offset=0x4000,size=4194304
15:30:07 102	<LAYER 2-1-4> INFO:Start to check uboot,offset=0x2000,size=4194304
15:30:07 568	<LAYER 2-1-4> INFO:Start to check misc,offset=0x6000,size=49152
15:30:07 658	<LAYER 2-1-4> INFO:Start to check resource,offset=0x8000,size=748032
15:30:07 769	<LAYER 2-1-4> INFO:Start to check kernel,offset=0x10000,size=18590908
15:30:09 346	<LAYER 2-1-4> INFO:Start to check boot,offset=0x1c000,size=1990712
15:30:09 499	<LAYER 2-1-4> INFO:Start to check recovery,offset=0x2c000,size=7483972
15:30:10 401	<LAYER 2-1-4> INFO:Start to check system,offset=0xb4000,size=1610612736
15:32:28 240	Layer<2-1-4>:下载固件成功
15:32:28 251	Layer<2-1-4>:重启设备开始
15:32:29 258	Layer<2-1-4>:重启设备成功
15:33:11 307	Info:RunExe->cmd=netstat -ano
15:33:14 409	ERROR:GetAdbSerialno->AdbCreateInterfaceByName failed,err=2,dev=\\?\USB#VID_2207&PID_0006#6&304CF1AC&0&4#{f72fe0d4-cbcb-407d-8814-9ed673d0dd6b}!
15:33:14 417	ERROR:AdbToRockusb->GetAdbSerialno failed!
15:33:14 423	Info:RunExe->cmd="\\192.168.1.186\rp-share\bill\3399\sdk-7.1\RKTools\windows\AndroidTool\AndroidTool_Release_v2.42\bin\adb.exe" reboot bootloader
15:33:19 568	* daemon not running. starting it now on port 5037 *
* daemon started successfully *
error: device not found

15:33:20 572	Info:RunExe->cmd="\\192.168.1.186\rp-share\bill\3399\sdk-7.1\RKTools\windows\AndroidTool\AndroidTool_Release_v2.42\bin\adb.exe" reboot bootloader
15:33:22 711	Layer<2-1-4>:测试设备开始
15:33:22 716	Layer<2-1-4>:测试设备成功
15:33:22 724	Layer<2-1-4>: Download parameter...
15:33:22 780	Layer<2-1-4>: Download resource...
15:33:22 907	Layer<2-1-4>: Download kernel...
15:33:25 155	Layer<2-1-4>: RunProc is ending, ret=1
15:35:09 197	Layer<2-1-4>:测试设备开始
15:35:09 207	Layer<2-1-4>:测试设备成功
15:35:09 216	Layer<2-1-4>: Download parameter...
15:35:09 260	Layer<2-1-4>: Download resource...
15:35:09 400	Layer<2-1-4>: Download kernel...
15:35:11 645	Layer<2-1-4>: RunProc is ending, ret=1
15:38:20 541	Layer<2-1-4>:测试设备开始
15:38:20 552	Layer<2-1-4>:测试设备成功
15:38:20 562	Layer<2-1-4>: Download parameter...
15:38:20 626	Layer<2-1-4>: Download resource...
15:38:20 755	Layer<2-1-4>: Download kernel...
15:38:23 025	Layer<2-1-4>: RunProc is ending, ret=1
15:56:30 345	Layer<2-1-4>:测试设备开始
15:56:30 354	Layer<2-1-4>:测试设备成功
15:56:30 359	Layer<2-1-4>:校验芯片开始
15:56:30 364	Layer<2-1-4>:校验芯片成功
15:56:30 368	Layer<2-1-4>:获取FlashInfo开始
15:56:30 374	<LAYER 2-1-4> INFO:FlashInfo: 00 00 E9 00 00 04 04 00 28 00 01
15:56:30 378	<LAYER 2-1-4> INFO:GetFlashInfo-->Emmc storage.
15:56:30 383	Layer<2-1-4>:获取FlashInfo成功
15:56:30 388	Layer<2-1-4>:准备IDB开始
15:56:30 393	<LAYER 2-1-4> INFO:CS(1)		(7456MB)		(SAMSUNG)
15:56:30 403	Layer<2-1-4>:准备IDB成功
15:56:30 408	Layer<2-1-4>:下载IDB开始
15:56:30 566	Layer<2-1-4>:下载IDB成功
15:56:30 572	Layer<2-1-4>:重启设备开始
15:56:31 609	Layer<2-1-4>:重启设备成功
15:56:31 983	Layer<2-1-4>:等待Loader开始
15:56:32 706	Layer<2-1-4>:等待Loader成功
15:56:32 712	Layer<2-1-4>:测试设备开始
15:56:32 719	Layer<2-1-4>:测试设备成功
15:56:32 725	Layer<2-1-4>:下载固件开始
15:56:32 743	<LAYER 2-1-4> INFO:Start download image,total=1647871416,band=64
15:56:32 778	<LAYER 2-1-4> INFO:Start to download trust,offset=0x4000,size=4194304
15:56:33 303	<LAYER 2-1-4> INFO:Start to download uboot,offset=0x2000,size=4194304
15:56:33 749	<LAYER 2-1-4> INFO:Start to download misc,offset=0x6000,size=49152
15:56:33 777	<LAYER 2-1-4> INFO:Start to download resource,offset=0x8000,size=748032
15:56:33 827	<LAYER 2-1-4> INFO:Start to download kernel,offset=0x10000,size=18590908
15:56:35 449	<LAYER 2-1-4> INFO:Start to download boot,offset=0x1c000,size=1990712
15:56:35 602	<LAYER 2-1-4> INFO:Start to download recovery,offset=0x2c000,size=7483972
15:56:36 421	<LAYER 2-1-4> INFO:Start to download system,offset=0xb4000,size=1610612736
15:58:54 332	<LAYER 2-1-4> INFO:Start to check trust,offset=0x4000,size=4194304
15:58:54 860	<LAYER 2-1-4> INFO:Start to check uboot,offset=0x2000,size=4194304
15:58:55 328	<LAYER 2-1-4> INFO:Start to check misc,offset=0x6000,size=49152
15:58:55 413	<LAYER 2-1-4> INFO:Start to check resource,offset=0x8000,size=748032
15:58:55 520	<LAYER 2-1-4> INFO:Start to check kernel,offset=0x10000,size=18590908
15:58:57 102	<LAYER 2-1-4> INFO:Start to check boot,offset=0x1c000,size=1990712
15:58:57 253	<LAYER 2-1-4> INFO:Start to check recovery,offset=0x2c000,size=7483972
15:58:58 112	<LAYER 2-1-4> INFO:Start to check system,offset=0xb4000,size=1610612736
16:01:17 002	Layer<2-1-4>:下载固件成功
16:01:17 013	Layer<2-1-4>:重启设备开始
16:01:18 025	Layer<2-1-4>:重启设备成功
16:08:06 163	Info:RunExe->cmd=netstat -ano
16:08:08 686	ERROR:GetAdbSerialno->AdbCreateInterfaceByName failed,err=5,dev=\\?\USB#VID_2207&PID_0011&MI_01#7&2520BE34&0&0001#{f72fe0d4-cbcb-407d-8814-9ed673d0dd6b}!
16:08:08 695	ERROR:AdbToRockusb->GetAdbSerialno failed!
16:08:08 702	Info:RunExe->cmd="\\192.168.1.186\rp-share\bill\3399\sdk-7.1\RKTools\windows\AndroidTool\AndroidTool_Release_v2.42\bin\adb.exe" reboot bootloader
16:08:17 159	Layer<2-1-4>:测试设备开始
16:08:17 167	Layer<2-1-4>:测试设备成功
16:08:17 173	Layer<2-1-4>:校验芯片开始
16:08:17 179	Layer<2-1-4>:校验芯片成功
16:08:17 184	Layer<2-1-4>:获取FlashInfo开始
16:08:17 188	<LAYER 2-1-4> INFO:FlashInfo: 00 F0 D1 01 00 04 04 00 28 00 01
16:08:17 191	<LAYER 2-1-4> INFO:GetFlashInfo-->Emmc storage.
16:08:17 195	Layer<2-1-4>:获取FlashInfo成功
16:08:17 202	Layer<2-1-4>:准备IDB开始
16:08:17 205	<LAYER 2-1-4> INFO:CS(1)		(14910MB)		(SAMSUNG)
16:08:17 213	Layer<2-1-4>:准备IDB成功
16:08:17 218	Layer<2-1-4>:下载IDB开始
16:08:18 392	Layer<2-1-4>:下载IDB成功
16:08:18 398	Layer<2-1-4>:重启设备开始
16:08:19 415	Layer<2-1-4>:重启设备成功
16:08:19 425	Layer<2-1-4>:等待Loader开始
16:08:20 128	Layer<2-1-4>:等待Loader成功
16:08:20 139	Layer<2-1-4>:测试设备开始
16:08:20 167	Layer<2-1-4>:测试设备成功
16:08:20 180	Layer<2-1-4>:下载固件开始
16:08:20 198	<LAYER 2-1-4> INFO:Start download image,total=1647871416,band=64
16:08:20 229	<LAYER 2-1-4> INFO:Start to download trust,offset=0x4000,size=4194304
16:08:20 768	<LAYER 2-1-4> INFO:Start to download uboot,offset=0x2000,size=4194304
16:08:21 214	<LAYER 2-1-4> INFO:Start to download misc,offset=0x6000,size=49152
16:08:21 239	<LAYER 2-1-4> INFO:Start to download resource,offset=0x8000,size=748032
16:08:21 291	<LAYER 2-1-4> INFO:Start to download kernel,offset=0x10000,size=18590908
16:08:22 931	<LAYER 2-1-4> INFO:Start to download boot,offset=0x1c000,size=1990712
16:08:23 098	<LAYER 2-1-4> INFO:Start to download recovery,offset=0x2c000,size=7483972
16:08:23 908	<LAYER 2-1-4> INFO:Start to download system,offset=0xb4000,size=1610612736
16:10:42 009	<LAYER 2-1-4> INFO:Start to check trust,offset=0x4000,size=4194304
16:10:42 543	<LAYER 2-1-4> INFO:Start to check uboot,offset=0x2000,size=4194304
16:10:43 019	<LAYER 2-1-4> INFO:Start to check misc,offset=0x6000,size=49152
16:10:43 105	<LAYER 2-1-4> INFO:Start to check resource,offset=0x8000,size=748032
16:10:43 213	<LAYER 2-1-4> INFO:Start to check kernel,offset=0x10000,size=18590908
16:10:44 788	<LAYER 2-1-4> INFO:Start to check boot,offset=0x1c000,size=1990712
16:10:44 945	<LAYER 2-1-4> INFO:Start to check recovery,offset=0x2c000,size=7483972
16:10:45 803	<LAYER 2-1-4> INFO:Start to check system,offset=0xb4000,size=1610612736
16:13:03 379	Layer<2-1-4>:下载固件成功
16:13:03 394	Layer<2-1-4>:重启设备开始
16:13:04 403	Layer<2-1-4>:重启设备成功
16:22:07 551	Info:RunExe->cmd=netstat -ano
16:22:09 644	ERROR:GetAdbSerialno->AdbCreateInterfaceByName failed,err=5,dev=\\?\USB#VID_2207&PID_0006#6&304CF1AC&0&4#{f72fe0d4-cbcb-407d-8814-9ed673d0dd6b}!
16:22:09 653	ERROR:AdbToRockusb->GetAdbSerialno failed!
16:22:09 658	Info:RunExe->cmd="\\192.168.1.186\rp-share\bill\3399\sdk-7.1\RKTools\windows\AndroidTool\AndroidTool_Release_v2.42\bin\adb.exe" reboot bootloader
16:22:17 856	Layer<2-1-4>:测试设备开始
16:22:17 867	Layer<2-1-4>:测试设备成功
16:22:17 875	Layer<2-1-4>:校验芯片开始
16:22:17 889	Layer<2-1-4>:校验芯片成功
16:22:17 896	Layer<2-1-4>:获取FlashInfo开始
16:22:17 901	<LAYER 2-1-4> INFO:FlashInfo: 00 F0 D1 01 00 04 04 00 28 00 01
16:22:17 906	<LAYER 2-1-4> INFO:GetFlashInfo-->Emmc storage.
16:22:17 912	Layer<2-1-4>:获取FlashInfo成功
16:22:17 918	Layer<2-1-4>:准备IDB开始
16:22:17 923	<LAYER 2-1-4> INFO:CS(1)		(14910MB)		(SAMSUNG)
16:22:17 933	Layer<2-1-4>:准备IDB成功
16:22:17 940	Layer<2-1-4>:下载IDB开始
16:22:18 107	Layer<2-1-4>:下载IDB成功
16:22:18 114	Layer<2-1-4>:重启设备开始
16:22:19 152	Layer<2-1-4>:重启设备成功
16:22:19 163	Layer<2-1-4>:等待Loader开始
16:22:19 844	Layer<2-1-4>:等待Loader成功
16:22:19 871	Layer<2-1-4>:测试设备开始
16:22:19 934	Layer<2-1-4>:测试设备成功
16:22:19 947	Layer<2-1-4>:下载固件开始
16:22:19 963	<LAYER 2-1-4> INFO:Start download image,total=1647871420,band=64
16:22:19 992	<LAYER 2-1-4> INFO:Start to download trust,offset=0x4000,size=4194304
16:22:20 560	<LAYER 2-1-4> INFO:Start to download uboot,offset=0x2000,size=4194304
16:22:21 007	<LAYER 2-1-4> INFO:Start to download misc,offset=0x6000,size=49152
16:22:21 038	<LAYER 2-1-4> INFO:Start to download resource,offset=0x8000,size=748032
16:22:21 097	<LAYER 2-1-4> INFO:Start to download kernel,offset=0x10000,size=18590908
16:22:22 745	<LAYER 2-1-4> INFO:Start to download boot,offset=0x1c000,size=1990712
16:22:22 875	<LAYER 2-1-4> INFO:Start to download recovery,offset=0x2c000,size=7483976
16:22:23 663	<LAYER 2-1-4> INFO:Start to download system,offset=0xb4000,size=1610612736
16:24:41 469	<LAYER 2-1-4> INFO:Start to check trust,offset=0x4000,size=4194304
16:24:41 995	<LAYER 2-1-4> INFO:Start to check uboot,offset=0x2000,size=4194304
16:24:42 471	<LAYER 2-1-4> INFO:Start to check misc,offset=0x6000,size=49152
16:24:42 568	<LAYER 2-1-4> INFO:Start to check resource,offset=0x8000,size=748032
16:24:42 674	<LAYER 2-1-4> INFO:Start to check kernel,offset=0x10000,size=18590908
16:24:44 227	<LAYER 2-1-4> INFO:Start to check boot,offset=0x1c000,size=1990712
16:24:44 384	<LAYER 2-1-4> INFO:Start to check recovery,offset=0x2c000,size=7483976
16:24:45 301	<LAYER 2-1-4> INFO:Start to check system,offset=0xb4000,size=1610612736
16:27:03 042	Layer<2-1-4>:下载固件成功
16:27:03 052	Layer<2-1-4>:重启设备开始
16:27:04 082	Layer<2-1-4>:重启设备成功
16:32:31 361	Info:RunExe->cmd=netstat -ano
16:32:33 915	ERROR:GetAdbSerialno->AdbCreateInterfaceByName failed,err=5,dev=\\?\USB#VID_2207&PID_0006#6&304CF1AC&0&4#{f72fe0d4-cbcb-407d-8814-9ed673d0dd6b}!
16:32:33 922	ERROR:AdbToRockusb->GetAdbSerialno failed!
16:32:33 928	Info:RunExe->cmd="\\192.168.1.186\rp-share\bill\3399\sdk-7.1\RKTools\windows\AndroidTool\AndroidTool_Release_v2.42\bin\adb.exe" reboot bootloader
16:32:43 353	Layer<2-1-4>:测试设备开始
16:32:43 358	Layer<2-1-4>:测试设备成功
16:32:43 364	Layer<2-1-4>:校验芯片开始
16:32:43 369	Layer<2-1-4>:校验芯片成功
16:32:43 374	Layer<2-1-4>:获取FlashInfo开始
16:32:43 379	<LAYER 2-1-4> INFO:FlashInfo: 00 F0 D1 01 00 04 04 00 28 00 01
16:32:43 383	<LAYER 2-1-4> INFO:GetFlashInfo-->Emmc storage.
16:32:43 388	Layer<2-1-4>:获取FlashInfo成功
16:32:43 393	Layer<2-1-4>:准备IDB开始
16:32:43 397	<LAYER 2-1-4> INFO:CS(1)		(14910MB)		(SAMSUNG)
16:32:43 407	Layer<2-1-4>:准备IDB成功
16:32:43 413	Layer<2-1-4>:下载IDB开始
16:32:43 582	Layer<2-1-4>:下载IDB成功
16:32:43 587	Layer<2-1-4>:重启设备开始
16:32:44 593	Layer<2-1-4>:重启设备成功
16:32:44 600	Layer<2-1-4>:等待Loader开始
16:32:45 097	Layer<2-1-4>:等待Loader成功
16:32:45 134	Layer<2-1-4>:测试设备开始
16:32:45 161	Layer<2-1-4>:测试设备成功
16:32:45 180	Layer<2-1-4>:下载固件开始
16:32:45 202	<LAYER 2-1-4> INFO:Start download image,total=1647871420,band=64
16:32:45 242	<LAYER 2-1-4> INFO:Start to download trust,offset=0x4000,size=4194304
16:32:45 782	<LAYER 2-1-4> INFO:Start to download uboot,offset=0x2000,size=4194304
16:32:46 227	<LAYER 2-1-4> INFO:Start to download misc,offset=0x6000,size=49152
16:32:46 256	<LAYER 2-1-4> INFO:Start to download resource,offset=0x8000,size=748032
16:32:46 313	<LAYER 2-1-4> INFO:Start to download kernel,offset=0x10000,size=18590908
16:32:47 962	<LAYER 2-1-4> INFO:Start to download boot,offset=0x1c000,size=1990712
16:32:48 099	<LAYER 2-1-4> INFO:Start to download recovery,offset=0x2c000,size=7483976
16:32:48 984	<LAYER 2-1-4> INFO:Start to download system,offset=0xb4000,size=1610612736
16:35:06 784	<LAYER 2-1-4> INFO:Start to check trust,offset=0x4000,size=4194304
16:35:07 328	<LAYER 2-1-4> INFO:Start to check uboot,offset=0x2000,size=4194304
16:35:07 805	<LAYER 2-1-4> INFO:Start to check misc,offset=0x6000,size=49152
16:35:07 899	<LAYER 2-1-4> INFO:Start to check resource,offset=0x8000,size=748032
16:35:08 004	<LAYER 2-1-4> INFO:Start to check kernel,offset=0x10000,size=18590908
16:35:09 578	<LAYER 2-1-4> INFO:Start to check boot,offset=0x1c000,size=1990712
16:35:09 732	<LAYER 2-1-4> INFO:Start to check recovery,offset=0x2c000,size=7483976
16:35:10 589	<LAYER 2-1-4> INFO:Start to check system,offset=0xb4000,size=1610612736
16:37:29 052	Layer<2-1-4>:下载固件成功
16:37:29 063	Layer<2-1-4>:重启设备开始
16:37:30 073	Layer<2-1-4>:重启设备成功
16:40:09 578	Layer<2-1-4>:测试设备开始
16:40:09 585	Layer<2-1-4>:测试设备成功
16:40:09 597	Layer<2-1-4>: Download parameter...
16:40:09 638	Layer<2-1-4>: Download resource...
16:40:09 760	Layer<2-1-4>: Download kernel...
16:40:11 933	Layer<2-1-4>: RunProc is ending, ret=1
16:50:28 727	Info:RunExe->cmd=netstat -ano
16:50:31 053	ERROR:GetAdbSerialno->AdbCreateInterfaceByName failed,err=5,dev=\\?\USB#VID_2207&PID_0006#6&304CF1AC&0&4#{f72fe0d4-cbcb-407d-8814-9ed673d0dd6b}!
16:50:31 061	ERROR:AdbToRockusb->GetAdbSerialno failed!
16:50:31 067	Info:RunExe->cmd="\\192.168.1.186\rp-share\bill\3399\sdk-7.1\RKTools\windows\AndroidTool\AndroidTool_Release_v2.42\bin\adb.exe" reboot bootloader
16:50:37 771	Layer<2-1-4>:测试设备开始
16:50:37 775	Layer<2-1-4>:测试设备成功
16:50:37 782	Layer<2-1-4>: Download parameter...
16:50:37 824	Layer<2-1-4>: Download resource...
16:50:37 950	Layer<2-1-4>: Download kernel...
16:50:40 130	Layer<2-1-4>: RunProc is ending, ret=1
16:57:02 619	Info:RunExe->cmd=netstat -ano
16:57:04 492	ERROR:GetAdbSerialno->AdbCreateInterfaceByName failed,err=5,dev=\\?\USB#VID_2207&PID_0006#6&304CF1AC&0&4#{f72fe0d4-cbcb-407d-8814-9ed673d0dd6b}!
16:57:04 501	ERROR:AdbToRockusb->GetAdbSerialno failed!
16:57:04 507	Info:RunExe->cmd="\\192.168.1.186\rp-share\bill\3399\sdk-7.1\RKTools\windows\AndroidTool\AndroidTool_Release_v2.42\bin\adb.exe" reboot bootloader
16:57:18 621	Layer<2-1-4>:测试设备开始
16:57:18 632	Layer<2-1-4>:测试设备成功
16:57:18 639	Layer<2-1-4>:校验芯片开始
16:57:18 649	Layer<2-1-4>:校验芯片成功
16:57:18 657	Layer<2-1-4>:获取FlashInfo开始
16:57:18 663	<LAYER 2-1-4> INFO:FlashInfo: 00 F0 D1 01 00 04 04 00 28 00 01
16:57:18 669	<LAYER 2-1-4> INFO:GetFlashInfo-->Emmc storage.
16:57:18 677	Layer<2-1-4>:获取FlashInfo成功
16:57:18 685	Layer<2-1-4>:准备IDB开始
16:57:18 690	<LAYER 2-1-4> INFO:CS(1)		(14910MB)		(SAMSUNG)
16:57:18 704	Layer<2-1-4>:准备IDB成功
16:57:18 712	Layer<2-1-4>:下载IDB开始
16:57:18 891	Layer<2-1-4>:下载IDB成功
16:57:18 901	Layer<2-1-4>:重启设备开始
16:57:19 932	Layer<2-1-4>:重启设备成功
16:57:19 944	Layer<2-1-4>:等待Loader开始
16:57:20 646	Layer<2-1-4>:等待Loader成功
16:57:20 669	Layer<2-1-4>:测试设备开始
16:57:20 686	Layer<2-1-4>:测试设备成功
16:57:20 697	Layer<2-1-4>: Download parameter...
16:57:20 760	Layer<2-1-4>: Download uboot...
16:57:21 312	Layer<2-1-4>: Download trust...
16:57:21 854	Layer<2-1-4>: Download misc...
16:57:21 878	Layer<2-1-4>: Download resource...
16:57:22 011	Layer<2-1-4>: Download kernel...
16:57:24 308	Layer<2-1-4>: Download boot...
16:57:24 600	Layer<2-1-4>: Download recovery...
16:57:25 580	Layer<2-1-4>: Download system...
17:02:01 255	Layer<2-1-4>: RunProc is ending, ret=1
17:08:29 753	Info:RunExe->cmd=netstat -ano
17:08:31 646	ERROR:GetAdbSerialno->AdbCreateInterfaceByName failed,err=5,dev=\\?\USB#VID_2207&PID_0006#6&304CF1AC&0&4#{f72fe0d4-cbcb-407d-8814-9ed673d0dd6b}!
17:08:32 131	ERROR:AdbToRockusb->GetAdbSerialno failed!
17:08:32 139	Info:RunExe->cmd="\\192.168.1.186\rp-share\bill\3399\sdk-7.1\RKTools\windows\AndroidTool\AndroidTool_Release_v2.42\bin\adb.exe" reboot bootloader
17:10:15 204	Layer<2-1-4>:测试设备开始
17:10:15 213	Layer<2-1-4>:测试设备成功
17:10:15 220	Layer<2-1-4>:校验芯片开始
17:10:15 228	Layer<2-1-4>:校验芯片成功
17:10:15 238	Layer<2-1-4>:获取FlashInfo开始
17:10:15 244	<LAYER 2-1-4> INFO:FlashInfo: 00 F0 D1 01 00 04 04 00 28 00 01
17:10:15 250	<LAYER 2-1-4> INFO:GetFlashInfo-->Emmc storage.
17:10:15 258	Layer<2-1-4>:获取FlashInfo成功
17:10:15 267	Layer<2-1-4>:准备IDB开始
17:10:15 273	<LAYER 2-1-4> INFO:CS(1)		(14910MB)		(SAMSUNG)
17:10:15 289	Layer<2-1-4>:准备IDB成功
17:10:15 298	Layer<2-1-4>:下载IDB开始
17:10:15 505	Layer<2-1-4>:下载IDB成功
17:10:15 516	Layer<2-1-4>:重启设备开始
17:10:16 550	Layer<2-1-4>:重启设备成功
17:10:16 575	Layer<2-1-4>:等待Loader开始
17:10:17 248	Layer<2-1-4>:等待Loader成功
17:10:17 279	Layer<2-1-4>:测试设备开始
17:10:17 306	Layer<2-1-4>:测试设备成功
17:10:17 318	Layer<2-1-4>: Download parameter...
17:10:17 380	Layer<2-1-4>: Download uboot...
17:10:17 917	Layer<2-1-4>: Download trust...
17:10:18 451	Layer<2-1-4>: Download misc...
17:10:18 474	Layer<2-1-4>: Download resource...
17:10:18 731	Layer<2-1-4>: Download kernel...
17:10:21 142	Layer<2-1-4>: Download boot...
17:10:21 432	Layer<2-1-4>: Download recovery...
17:10:22 427	Layer<2-1-4>: DownloadSparse system...
17:12:47 450	Layer<2-1-4>: RunProc is ending, ret=1
17:23:12 278	Layer<2-1-4>:测试设备开始
17:23:12 288	Layer<2-1-4>:测试设备成功
17:23:12 300	Layer<2-1-4>: Download boot...
17:23:12 592	Layer<2-1-4>: Download recovery...
17:23:13 621	Layer<2-1-4>: RunProc is ending, ret=1
17:42:08 691	Info:RunExe->cmd=netstat -ano
17:42:10 607	ERROR:GetAdbSerialno->AdbCreateInterfaceByName failed,err=5,dev=\\?\USB#VID_2207&PID_0006#6&304CF1AC&0&4#{f72fe0d4-cbcb-407d-8814-9ed673d0dd6b}!
17:42:10 616	ERROR:AdbToRockusb->GetAdbSerialno failed!
17:42:10 620	Info:RunExe->cmd="\\192.168.1.186\rp-share\bill\3399\sdk-7.1\RKTools\windows\AndroidTool\AndroidTool_Release_v2.42\bin\adb.exe" reboot bootloader
17:44:35 751	Layer<2-1-4>:测试设备开始
17:44:35 768	Layer<2-1-4>:测试设备成功
17:44:35 778	Layer<2-1-4>: Download boot...
17:44:36 065	Layer<2-1-4>: Download recovery...
17:44:37 088	Layer<2-1-4>: RunProc is ending, ret=1
18:03:20 291	Info:RunExe->cmd=netstat -ano
18:03:22 134	ERROR:GetAdbSerialno->AdbCreateInterfaceByName failed,err=5,dev=\\?\USB#VID_2207&PID_0006#6&304CF1AC&0&4#{f72fe0d4-cbcb-407d-8814-9ed673d0dd6b}!
18:03:22 142	ERROR:AdbToRockusb->GetAdbSerialno failed!
18:03:22 166	Info:RunExe->cmd="\\192.168.1.186\rp-share\bill\3399\sdk-7.1\RKTools\windows\AndroidTool\AndroidTool_Release_v2.42\bin\adb.exe" reboot bootloader
18:03:34 998	Layer<2-1-4>:测试设备开始
18:03:35 005	Layer<2-1-4>:测试设备成功
18:03:35 016	Layer<2-1-4>: Download resource...
18:03:35 149	Layer<2-1-4>: Download kernel...
18:03:37 565	Layer<2-1-4>: RunProc is ending, ret=1
18:46:14 747	Info:RunExe->cmd=netstat -ano
18:46:16 611	ERROR:GetAdbSerialno->AdbCreateInterfaceByName failed,err=5,dev=\\?\USB#VID_2207&PID_0006#6&304CF1AC&0&4#{f72fe0d4-cbcb-407d-8814-9ed673d0dd6b}!
18:46:16 618	ERROR:AdbToRockusb->GetAdbSerialno failed!
18:46:16 624	Info:RunExe->cmd="\\192.168.1.186\rp-share\bill\3399\sdk-7.1\RKTools\windows\AndroidTool\AndroidTool_Release_v2.42\bin\adb.exe" reboot bootloader
18:46:24 317	Layer<2-1-4>:测试设备开始
18:46:24 322	Layer<2-1-4>:测试设备成功
18:46:24 332	Layer<2-1-4>: Download resource...
18:46:24 458	Layer<2-1-4>: Download kernel...
18:46:26 841	Layer<2-1-4>: RunProc is ending, ret=1
19:03:14 528	Info:RunExe->cmd=netstat -ano
19:03:16 378	ERROR:GetAdbSerialno->AdbCreateInterfaceByName failed,err=5,dev=\\?\USB#VID_2207&PID_0006#6&304CF1AC&0&4#{f72fe0d4-cbcb-407d-8814-9ed673d0dd6b}!
19:03:16 386	ERROR:AdbToRockusb->GetAdbSerialno failed!
19:03:16 402	Info:RunExe->cmd="\\192.168.1.186\rp-share\bill\3399\sdk-7.1\RKTools\windows\AndroidTool\AndroidTool_Release_v2.42\bin\adb.exe" reboot bootloader
19:03:23 230	Layer<2-1-4>:测试设备开始
19:03:23 250	Layer<2-1-4>:测试设备成功
19:03:23 260	Layer<2-1-4>: Download resource...
19:03:23 388	Layer<2-1-4>: Download kernel...
19:03:25 722	Layer<2-1-4>: Download boot...
19:03:25 997	Layer<2-1-4>: Download recovery...
19:03:26 958	Layer<2-1-4>: DownloadSparse system...
19:05:40 034	Layer<2-1-4>: RunProc is ending, ret=1
19:14:02 567	Info:RunExe->cmd=netstat -ano
19:14:04 413	ERROR:GetAdbSerialno->AdbCreateInterfaceByName failed,err=5,dev=\\?\USB#VID_2207&PID_0006#6&304CF1AC&0&4#{f72fe0d4-cbcb-407d-8814-9ed673d0dd6b}!
19:14:04 421	ERROR:AdbToRockusb->GetAdbSerialno failed!
19:14:04 425	Info:RunExe->cmd="\\192.168.1.186\rp-share\bill\3399\sdk-7.1\RKTools\windows\AndroidTool\AndroidTool_Release_v2.42\bin\adb.exe" reboot bootloader
19:16:44 774	Layer<2-1-4>:测试设备开始
19:16:44 785	Layer<2-1-4>:测试设备成功
19:16:44 798	Layer<2-1-4>: Download boot...
19:16:45 090	Layer<2-1-4>: DownloadSparse system...
19:18:57 602	Layer<2-1-4>: RunProc is ending, ret=1
19:34:57 573	Info:RunExe->cmd=netstat -ano
19:34:59 420	ERROR:GetAdbSerialno->AdbCreateInterfaceByName failed,err=5,dev=\\?\USB#VID_2207&PID_0006#6&304CF1AC&0&4#{f72fe0d4-cbcb-407d-8814-9ed673d0dd6b}!
19:34:59 430	ERROR:AdbToRockusb->GetAdbSerialno failed!
19:34:59 434	Info:RunExe->cmd="\\192.168.1.186\rp-share\bill\3399\sdk-7.1\RKTools\windows\AndroidTool\AndroidTool_Release_v2.42\bin\adb.exe" reboot bootloader
19:37:28 936	Layer<2-1-4>:测试设备开始
19:37:28 944	Layer<2-1-4>:测试设备成功
19:37:28 954	Layer<2-1-4>: Download boot...
19:37:29 237	Layer<2-1-4>: DownloadSparse system...
19:39:41 748	Layer<2-1-4>: RunProc is ending, ret=1
19:56:56 468	Info:RunExe->cmd=netstat -ano
19:56:58 318	ERROR:GetAdbSerialno->AdbCreateInterfaceByName failed,err=5,dev=\\?\USB#VID_2207&PID_0006#6&304CF1AC&0&4#{f72fe0d4-cbcb-407d-8814-9ed673d0dd6b}!
19:56:58 324	ERROR:AdbToRockusb->GetAdbSerialno failed!
19:56:58 329	Info:RunExe->cmd="\\192.168.1.186\rp-share\bill\3399\sdk-7.1\RKTools\windows\AndroidTool\AndroidTool_Release_v2.42\bin\adb.exe" reboot bootloader
20:02:28 483	Layer<2-1-4>:测试设备开始
20:02:28 490	Layer<2-1-4>:测试设备成功
20:02:29 147	Layer<2-1-4>:校验芯片开始
20:02:29 156	Layer<2-1-4>:校验芯片成功
20:02:29 165	Layer<2-1-4>:获取FlashInfo开始
20:02:29 171	<LAYER 2-1-4> INFO:FlashInfo: 00 F0 D1 01 00 04 04 00 28 00 01
20:02:29 179	<LAYER 2-1-4> INFO:GetFlashInfo-->Emmc storage.
20:02:29 187	Layer<2-1-4>:获取FlashInfo成功
20:02:29 198	Layer<2-1-4>:准备IDB开始
20:02:29 208	<LAYER 2-1-4> INFO:CS(1)		(14910MB)		(SAMSUNG)
20:02:29 221	Layer<2-1-4>:准备IDB成功
20:02:29 226	Layer<2-1-4>:下载IDB开始
20:02:29 417	Layer<2-1-4>:下载IDB成功
20:02:29 424	Layer<2-1-4>:重启设备开始
20:02:30 432	Layer<2-1-4>:重启设备成功
20:02:30 791	Layer<2-1-4>:等待Loader开始
20:02:31 529	Layer<2-1-4>:等待Loader成功
20:02:31 536	Layer<2-1-4>:测试设备开始
20:02:31 543	Layer<2-1-4>:测试设备成功
20:02:31 591	Layer<2-1-4>: Download parameter...
20:02:31 660	Layer<2-1-4>: Download uboot...
20:02:32 196	Layer<2-1-4>: Download trust...
20:02:32 734	Layer<2-1-4>: Download misc...
20:02:32 756	Layer<2-1-4>: Download resource...
20:02:33 209	Layer<2-1-4>: Download kernel...
20:02:35 602	Layer<2-1-4>: Download boot...
20:02:35 882	Layer<2-1-4>: Download recovery...
20:02:37 339	Layer<2-1-4>: DownloadSparse system...
20:04:49 715	Layer<2-1-4>: RunProc is ending, ret=1
21:00:43 951	Info:RunExe->cmd=netstat -ano
21:00:45 807	ERROR:GetAdbSerialno->AdbCreateInterfaceByName failed,err=5,dev=\\?\USB#VID_2207&PID_0006#6&304CF1AC&0&4#{f72fe0d4-cbcb-407d-8814-9ed673d0dd6b}!
21:00:45 815	ERROR:AdbToRockusb->GetAdbSerialno failed!
21:00:45 827	Info:RunExe->cmd="\\192.168.1.186\rp-share\bill\3399\sdk-7.1\RKTools\windows\AndroidTool\AndroidTool_Release_v2.42\bin\adb.exe" reboot bootloader
21:08:52 281	Layer<2-1-4>:测试设备开始
21:08:52 289	Layer<2-1-4>:测试设备成功
21:08:52 295	Layer<2-1-4>:校验芯片开始
21:08:52 300	Layer<2-1-4>:校验芯片成功
21:08:52 305	Layer<2-1-4>:获取FlashInfo开始
21:08:52 312	<LAYER 2-1-4> INFO:FlashInfo: 00 F0 D1 01 00 04 04 00 28 00 01
21:08:52 315	<LAYER 2-1-4> INFO:GetFlashInfo-->Emmc storage.
21:08:52 320	Layer<2-1-4>:获取FlashInfo成功
21:08:52 324	Layer<2-1-4>:准备IDB开始
21:08:52 327	<LAYER 2-1-4> INFO:CS(1)		(14910MB)		(SAMSUNG)
21:08:52 338	Layer<2-1-4>:准备IDB成功
21:08:52 342	Layer<2-1-4>:下载IDB开始
21:08:52 521	Layer<2-1-4>:下载IDB成功
21:08:52 525	Layer<2-1-4>:重启设备开始
21:08:53 573	Layer<2-1-4>:重启设备成功
21:08:53 583	Layer<2-1-4>:等待Loader开始
21:08:54 348	Layer<2-1-4>:等待Loader成功
21:08:54 361	Layer<2-1-4>:测试设备开始
21:08:54 369	Layer<2-1-4>:测试设备成功
21:08:54 376	Layer<2-1-4>: Download parameter...
21:08:54 436	Layer<2-1-4>: Download uboot...
21:08:54 971	Layer<2-1-4>: Download trust...
21:08:55 501	Layer<2-1-4>: Download misc...
21:08:55 524	Layer<2-1-4>: Download resource...
21:08:55 976	Layer<2-1-4>: Download kernel...
21:08:58 359	Layer<2-1-4>: Download boot...
21:08:58 641	Layer<2-1-4>: Download recovery...
21:08:59 621	Layer<2-1-4>: DownloadSparse system...
21:11:16 135	Layer<2-1-4>: RunProc is ending, ret=1
21:17:59 332	Info:RunExe->cmd=netstat -ano
21:18:01 413	ERROR:GetAdbSerialno->AdbCreateInterfaceByName failed,err=5,dev=\\?\USB#VID_2207&PID_0006#6&304CF1AC&0&4#{f72fe0d4-cbcb-407d-8814-9ed673d0dd6b}!
21:18:01 420	ERROR:AdbToRockusb->GetAdbSerialno failed!
21:18:01 426	Info:RunExe->cmd="\\192.168.1.186\rp-share\bill\3399\sdk-7.1\RKTools\windows\AndroidTool\AndroidTool_Release_v2.42\bin\adb.exe" reboot bootloader
21:18:34 466	Layer<2-1-4>:测试设备开始
21:18:34 477	Layer<2-1-4>:测试设备成功
21:18:34 486	Layer<2-1-4>:校验芯片开始
21:18:34 494	Layer<2-1-4>:校验芯片成功
21:18:34 502	Layer<2-1-4>:获取FlashInfo开始
21:18:34 509	<LAYER 2-1-4> INFO:FlashInfo: 00 F0 D1 01 00 04 04 00 28 00 01
21:18:34 515	<LAYER 2-1-4> INFO:GetFlashInfo-->Emmc storage.
21:18:34 522	Layer<2-1-4>:获取FlashInfo成功
21:18:34 531	Layer<2-1-4>:准备IDB开始
21:18:34 537	<LAYER 2-1-4> INFO:CS(1)		(14910MB)		(SAMSUNG)
21:18:34 552	Layer<2-1-4>:准备IDB成功
21:18:34 562	Layer<2-1-4>:下载IDB开始
21:18:34 788	Layer<2-1-4>:下载IDB成功
21:18:34 802	Layer<2-1-4>:重启设备开始
21:18:35 862	Layer<2-1-4>:重启设备成功
21:18:35 881	Layer<2-1-4>:等待Loader开始
21:18:36 629	Layer<2-1-4>:等待Loader成功
21:18:36 635	Layer<2-1-4>:测试设备开始
21:18:36 641	Layer<2-1-4>:测试设备成功
21:18:36 648	Layer<2-1-4>: Download parameter...
21:18:36 707	Layer<2-1-4>: Download uboot...
21:18:37 243	Layer<2-1-4>: Download trust...
21:18:37 776	Layer<2-1-4>: Download misc...
21:18:37 799	Layer<2-1-4>: Download boot...
21:18:38 401	Layer<2-1-4>: Download recovery...
21:18:39 389	Layer<2-1-4>: DownloadSparse system...
21:20:56 292	Layer<2-1-4>: RunProc is ending, ret=1
21:23:45 174	Info:RunExe->cmd=netstat -ano
21:23:47 254	ERROR:GetAdbSerialno->AdbCreateInterfaceByName failed,err=5,dev=\\?\USB#VID_2207&PID_0006#6&304CF1AC&0&4#{f72fe0d4-cbcb-407d-8814-9ed673d0dd6b}!
21:23:47 263	ERROR:AdbToRockusb->GetAdbSerialno failed!
21:23:47 269	Info:RunExe->cmd="\\192.168.1.186\rp-share\bill\3399\sdk-7.1\RKTools\windows\AndroidTool\AndroidTool_Release_v2.42\bin\adb.exe" reboot bootloader
21:27:58 460	Info:RunExe->cmd=netstat -ano
21:28:00 313	ERROR:GetAdbSerialno->AdbCreateInterfaceByName failed,err=5,dev=\\?\USB#VID_2207&PID_0006#6&304CF1AC&0&4#{f72fe0d4-cbcb-407d-8814-9ed673d0dd6b}!
21:28:00 345	ERROR:AdbToRockusb->GetAdbSerialno failed!
21:28:00 352	Info:RunExe->cmd="\\192.168.1.186\rp-share\bill\3399\sdk-7.1\RKTools\windows\AndroidTool\AndroidTool_Release_v2.42\bin\adb.exe" reboot bootloader
21:28:08 679	Layer<2-1-4>:测试设备开始
21:28:08 685	Layer<2-1-4>:测试设备成功
21:28:08 695	Layer<2-1-4>: Download resource...
21:28:08 822	Layer<2-1-4>: Download kernel...
21:28:11 164	Layer<2-1-4>: RunProc is ending, ret=1
21:33:55 363	Info:RunExe->cmd=netstat -ano
21:33:57 221	ERROR:GetAdbSerialno->AdbCreateInterfaceByName failed,err=5,dev=\\?\USB#VID_2207&PID_0006#6&304CF1AC&0&4#{f72fe0d4-cbcb-407d-8814-9ed673d0dd6b}!
21:33:57 227	ERROR:AdbToRockusb->GetAdbSerialno failed!
21:33:57 232	Info:RunExe->cmd="\\192.168.1.186\rp-share\bill\3399\sdk-7.1\RKTools\windows\AndroidTool\AndroidTool_Release_v2.42\bin\adb.exe" reboot bootloader
21:34:09 990	Layer<2-1-4>:测试设备开始
21:34:09 996	Layer<2-1-4>:测试设备成功
21:34:09 999	Layer<2-1-4>:校验芯片开始
21:34:10 003	Layer<2-1-4>:校验芯片成功
21:34:10 008	Layer<2-1-4>:获取FlashInfo开始
21:34:10 012	<LAYER 2-1-4> INFO:FlashInfo: 00 F0 D1 01 00 04 04 00 28 00 01
21:34:10 015	<LAYER 2-1-4> INFO:GetFlashInfo-->Emmc storage.
21:34:10 019	Layer<2-1-4>:获取FlashInfo成功
21:34:10 024	Layer<2-1-4>:准备IDB开始
21:34:10 028	<LAYER 2-1-4> INFO:CS(1)		(14910MB)		(SAMSUNG)
21:34:10 037	Layer<2-1-4>:准备IDB成功
21:34:10 043	Layer<2-1-4>:下载IDB开始
21:34:10 207	Layer<2-1-4>:下载IDB成功
21:34:10 214	Layer<2-1-4>:重启设备开始
21:34:11 273	Layer<2-1-4>:重启设备成功
21:34:11 287	Layer<2-1-4>:等待Loader开始
21:34:12 079	Layer<2-1-4>:等待Loader成功
21:34:12 149	Layer<2-1-4>:测试设备开始
21:34:12 203	Layer<2-1-4>:测试设备成功
21:34:12 215	Layer<2-1-4>: Download parameter...
21:34:12 306	Layer<2-1-4>: Download uboot...
21:34:12 843	Layer<2-1-4>: Download trust...
21:34:13 379	Layer<2-1-4>: Download resource...
21:34:13 510	Layer<2-1-4>: Download kernel...
21:34:16 619	Layer<2-1-4>: Download boot...
21:34:16 901	Layer<2-1-4>: Download recovery...
21:34:17 893	Layer<2-1-4>: DownloadSparse system...
21:36:35 139	Layer<2-1-4>: RunProc is ending, ret=1
21:41:04 226	Info:RunExe->cmd=netstat -ano
21:41:06 104	ERROR:GetAdbSerialno->AdbCreateInterfaceByName failed,err=5,dev=\\?\USB#VID_2207&PID_0006#6&304CF1AC&0&4#{f72fe0d4-cbcb-407d-8814-9ed673d0dd6b}!
21:41:06 118	ERROR:AdbToRockusb->GetAdbSerialno failed!
21:41:06 131	Info:RunExe->cmd="\\192.168.1.186\rp-share\bill\3399\sdk-7.1\RKTools\windows\AndroidTool\AndroidTool_Release_v2.42\bin\adb.exe" reboot bootloader
21:41:13 141	Layer<2-1-4>:测试设备开始
21:41:13 147	Layer<2-1-4>:测试设备成功
21:41:13 153	Layer<2-1-4>:校验芯片开始
21:41:13 158	Layer<2-1-4>:校验芯片成功
21:41:13 165	Layer<2-1-4>:获取FlashInfo开始
21:41:13 170	<LAYER 2-1-4> INFO:FlashInfo: 00 F0 D1 01 00 04 04 00 28 00 01
21:41:13 175	<LAYER 2-1-4> INFO:GetFlashInfo-->Emmc storage.
21:41:13 181	Layer<2-1-4>:获取FlashInfo成功
21:41:13 186	Layer<2-1-4>:准备IDB开始
21:41:13 191	<LAYER 2-1-4> INFO:CS(1)		(14910MB)		(SAMSUNG)
21:41:13 199	Layer<2-1-4>:准备IDB成功
21:41:13 203	Layer<2-1-4>:下载IDB开始
21:41:13 398	Layer<2-1-4>:下载IDB成功
21:41:13 403	Layer<2-1-4>:重启设备开始
21:41:14 438	Layer<2-1-4>:重启设备成功
21:41:14 451	Layer<2-1-4>:等待Loader开始
21:41:15 318	Layer<2-1-4>:等待Loader成功
21:41:15 338	Layer<2-1-4>:测试设备开始
21:41:15 347	Layer<2-1-4>:测试设备成功
21:41:15 358	Layer<2-1-4>: Download parameter...
21:41:15 415	Layer<2-1-4>: Download uboot...
21:41:15 948	Layer<2-1-4>: Download trust...
21:41:16 481	Layer<2-1-4>: Download misc...
21:41:16 505	Layer<2-1-4>: Download resource...
21:41:16 962	Layer<2-1-4>: Download kernel...
21:41:19 353	Layer<2-1-4>: Download boot...
21:41:19 636	Layer<2-1-4>: Download recovery...
21:41:20 622	Layer<2-1-4>: DownloadSparse system...
21:43:37 844	Layer<2-1-4>: RunProc is ending, ret=1
