14:50:03 623	<LAYER 3-8> ERROR:GetDrive-->CM_Get_Child(instance:10712) failed,err=0xd
14:50:04 151	<LAYER 3-8> ERROR:GetDrive-->CM_Get_Child(instance:10712) failed,err=0xd
14:50:04 722	<LAYER 3-8> ERROR:GetProperty-->SetupDiOpenDeviceInterface failed,GetlastError(0xe0000225)
14:50:04 728	<LAYER 3-8> ERROR:GetDemoDrive-->Get PDOName failed
14:50:05 452	<LAYER 3-8> ERROR:GetProperty-->SetupDiOpenDeviceInterface failed,GetlastError(0xe0000225)
14:50:05 464	<LAYER 3-8> ERROR:GetDemoDrive-->Get PDOName failed
14:50:05 967	<LAYER 3-8> ERROR:GetProperty-->SetupDiOpenDeviceInterface failed,GetlastError(0xe0000225)
14:50:06 028	<LAYER 3-8> ERROR:GetDemoDrive-->Get PDOName failed
14:50:06 533	<LAYER 3-8> ERROR:GetProperty-->SetupDiOpenDeviceInterface failed,GetlastError(0xe0000225)
14:50:06 549	<LAYER 3-8> ERROR:GetDemoDrive-->Get PDOName failed
14:50:07 289	<LAYER 3-8> ERROR:GetProperty-->SetupDiOpenDeviceInterface failed,GetlastError(0xe0000225)
14:50:07 317	<LAYER 3-8> ERROR:GetDemoDrive-->Get PDOName failed
14:50:07 864	<LAYER 3-8> ERROR:GetProperty-->SetupDiOpenDeviceInterface failed,GetlastError(0xe0000225)
14:50:07 898	<LAYER 3-8> ERROR:GetDemoDrive-->Get PDOName failed
14:50:08 406	<LAYER 3-8> ERROR:GetDemoDrive-->QueryVolume failed
15:32:39 942	<LAYER 3-8> ERROR:GetProperty-->SetupDiGetDeviceRegistryProperty failed,GetlastError(0xe000020b)
15:32:39 958	<LAYER 3-8> ERROR:GetDemoDrive-->Get PDOName failed
15:33:04 346	<LAYER 3-8> ERROR:GetDemoDrive-->QueryVolume failed
15:37:18 915	<LAYER 3-8> ERROR:GetDrive-->CM_Get_Child(instance:10712) failed,err=0xd
15:38:52 342	<LAYER 3-8> ERROR:GetProperty-->SetupDiGetDeviceRegistryProperty failed,GetlastError(0xe000020b)
15:38:52 361	<LAYER 3-8> ERROR:GetDemoDrive-->Get PDOName failed
16:13:20 102	ERROR:Search_ADB-->CM_Get_Sibling failed(0xd)
16:13:20 345	ERROR:Search_ADB-->CM_Get_Sibling failed(0xd)
16:13:20 562	ERROR:Search_ADB-->CM_Get_Sibling failed(0xd)
16:13:20 777	ERROR:Search_ADB-->CM_Get_Sibling failed(0xd)
16:16:47 779	<LAYER 3-8> ERROR:GetDemoDrive-->QueryVolume failed
16:17:42 962	<LAYER 3-8> ERROR:GetDemoDrive-->QueryVolume failed
16:31:27 398	<LAYER 3-8> ERROR:GetDemoDrive-->QueryVolume failed
16:50:27 108	<LAYER 3-8> ERROR:GetDemoDrive-->QueryVolume failed
16:58:28 667	<LAYER 3-8> ERROR:GetDrive-->CM_Get_Child(instance:10712) failed,err=0xd
17:13:09 901	<LAYER 3-8> ERROR:GetDemoDrive-->QueryVolume failed
17:34:08 723	<LAYER 3-8> ERROR:GetDrive-->CM_Get_Child(instance:10712) failed,err=0xd
17:43:08 008	<LAYER 3-8> ERROR:GetDemoDrive-->QueryVolume failed
17:50:11 401	<LAYER 3-8> ERROR:GetProperty-->SetupDiOpenDeviceInterface failed,GetlastError(0xe0000225)
17:50:11 421	<LAYER 3-8> ERROR:GetDemoDrive-->Get PDOName failed
17:50:11 924	<LAYER 3-8> ERROR:GetProperty-->SetupDiOpenDeviceInterface failed,GetlastError(0xe0000225)
17:50:12 113	<LAYER 3-8> ERROR:GetDemoDrive-->Get PDOName failed
17:50:12 619	<LAYER 3-8> ERROR:GetProperty-->SetupDiOpenDeviceInterface failed,GetlastError(0xe0000225)
17:50:12 624	<LAYER 3-8> ERROR:GetDemoDrive-->Get PDOName failed
17:50:13 346	<LAYER 3-8> ERROR:GetProperty-->SetupDiOpenDeviceInterface failed,GetlastError(0xe0000225)
17:50:13 351	<LAYER 3-8> ERROR:GetDemoDrive-->Get PDOName failed
17:50:13 856	<LAYER 3-8> ERROR:GetProperty-->SetupDiOpenDeviceInterface failed,GetlastError(0xe0000225)
17:50:13 866	<LAYER 3-8> ERROR:GetDemoDrive-->Get PDOName failed
17:50:14 373	<LAYER 3-8> ERROR:GetDemoDrive-->QueryVolume failed
17:51:00 093	<LAYER 3-8> ERROR:GetProperty-->SetupDiGetDeviceRegistryProperty failed,GetlastError(0xe000020b)
17:51:00 099	<LAYER 3-8> ERROR:GetDemoDrive-->Get PDOName failed
18:04:20 285	<LAYER 3-8> ERROR:GetDemoDrive-->QueryVolume failed
18:09:38 847	<LAYER 3-8> ERROR:GetDemoDrive-->QueryVolume failed
18:19:34 734	<LAYER 3-8> ERROR:GetDrive-->CM_Get_Child(instance:10712) failed,err=0xd
18:41:30 501	<LAYER 3-8> ERROR:GetDemoDrive-->QueryVolume failed
18:48:16 089	<LAYER 3-8> ERROR:GetProperty-->SetupDiGetDeviceRegistryProperty failed,GetlastError(0xe000020b)
18:48:16 121	<LAYER 3-8> ERROR:GetDemoDrive-->Get PDOName failed
18:49:36 910	<LAYER 3-8> ERROR:GetDemoDrive-->QueryVolume failed
18:51:54 025	<LAYER 3-8> ERROR:GetDrive-->CM_Get_Child(instance:10712) failed,err=0xd
18:53:11 206	<LAYER 3-8> ERROR:GetDrive-->CM_Get_Child(instance:10712) failed,err=0xd
21:07:48 103	<LAYER 3-8> ERROR:GetDrive-->CM_Get_Child(instance:10712) failed,err=0xd
