09:46:31 034	Error:EnumerateHubPorts-->DeviceIoControl failed,err=0x48f
09:46:36 085	Error:EnumerateHubPorts-->DeviceIoControl failed,err=0x48f
09:53:28 901	Error:EnumerateHubPorts-->DeviceIoControl failed,err=0x48f
09:54:44 158	Error:EnumerateHubPorts-->DeviceIoControl failed,err=0x48f
09:56:28 624	Error:EnumerateHubPorts-->DeviceIoControl failed,err=0x48f
10:06:10 947	Error:EnumerateHubPorts-->DeviceIoControl failed,err=0x48f
10:06:27 819	Error:EnumerateHubPorts-->DeviceIoControl failed,err=0x48f
10:11:32 663	Error:EnumerateHubPorts-->DeviceIoControl failed,err=0x48f
10:11:44 202	Error:EnumerateHubPorts-->DeviceIoControl failed,err=0x48f
10:11:49 179	Error:EnumerateHubPorts-->DeviceIoControl failed,err=0x48f
10:13:12 164	Error:EnumerateHubPorts-->DeviceIoControl failed,err=0x48f
10:13:15 390	Error:EnumerateHubPorts-->DeviceIoControl failed,err=0x48f
10:13:27 931	Error:EnumerateHubPorts-->DeviceIoControl failed,err=0x48f
10:14:52 604	Error:EnumerateHubPorts-->DeviceIoControl failed,err=0x48f
10:15:11 352	Error:EnumerateHubPorts-->DeviceIoControl failed,err=0x48f
10:15:30 612	Error:EnumerateHubPorts-->DeviceIoControl failed,err=0x48f
10:24:00 409	Error:EnumerateHubPorts-->DeviceIoControl failed,err=0x48f
10:24:05 384	Error:EnumerateHubPorts-->DeviceIoControl failed,err=0x48f
10:24:28 382	Error:EnumerateHubPorts-->DeviceIoControl failed,err=0x48f
10:25:17 805	Error:EnumerateHubPorts-->DeviceIoControl failed,err=0x48f
10:28:38 862	Error:EnumerateHubPorts-->DeviceIoControl failed,err=0x48f
10:29:06 921	Error:EnumerateHubPorts-->DeviceIoControl failed,err=0x48f
10:29:21 739	Error:EnumerateHubPorts-->DeviceIoControl failed,err=0x48f
10:29:57 141	Error:EnumerateHubPorts-->DeviceIoControl failed,err=0x48f
10:31:09 579	Error:EnumerateHubPorts-->DeviceIoControl failed,err=0x48f
10:31:47 669	Error:EnumerateHubPorts-->DeviceIoControl failed,err=0x48f
10:31:58 268	Error:EnumerateHubPorts-->DeviceIoControl failed,err=0x48f
10:32:14 449	Error:EnumerateHubPorts-->DeviceIoControl failed,err=0x48f
10:32:49 007	Error:EnumerateHubPorts-->DeviceIoControl failed,err=0x48f
10:33:06 721	Error:EnumerateHubPorts-->DeviceIoControl failed,err=0x48f
10:33:23 467	Error:EnumerateHubPorts-->DeviceIoControl failed,err=0x48f
10:34:40 287	Error:EnumerateHubPorts-->DeviceIoControl failed,err=0x48f
10:34:52 645	Error:EnumerateHubPorts-->DeviceIoControl failed,err=0x48f
10:35:17 559	Error:EnumerateHubPorts-->DeviceIoControl failed,err=0x48f
10:35:22 459	Error:EnumerateHubPorts-->DeviceIoControl failed,err=0x48f
10:36:54 133	Error:EnumerateHubPorts-->DeviceIoControl failed,err=0x48f
10:37:21 416	Error:EnumerateHubPorts-->DeviceIoControl failed,err=0x48f
10:37:39 943	Error:EnumerateHubPorts-->DeviceIoControl failed,err=0x48f
10:38:04 848	Error:EnumerateHubPorts-->DeviceIoControl failed,err=0x48f
10:38:40 206	Error:EnumerateHubPorts-->DeviceIoControl failed,err=0x48f
10:38:54 354	Error:EnumerateHubPorts-->DeviceIoControl failed,err=0x48f
10:38:59 349	Error:EnumerateHubPorts-->DeviceIoControl failed,err=0x48f
10:40:11 177	Error:EnumerateHubPorts-->DeviceIoControl failed,err=0x48f
10:40:16 073	Error:EnumerateHubPorts-->DeviceIoControl failed,err=0x48f
10:40:42 589	Error:EnumerateHubPorts-->DeviceIoControl failed,err=0x48f
10:41:04 929	Error:EnumerateHubPorts-->DeviceIoControl failed,err=0x48f
10:41:09 942	Error:EnumerateHubPorts-->DeviceIoControl failed,err=0x48f
10:42:09 363	Error:EnumerateHubPorts-->DeviceIoControl failed,err=0x48f
10:42:30 079	Error:EnumerateHubPorts-->DeviceIoControl failed,err=0x48f
10:43:05 310	Error:EnumerateHubPorts-->DeviceIoControl failed,err=0x48f
10:43:26 519	Error:EnumerateHubPorts-->DeviceIoControl failed,err=0x48f
10:47:41 584	Error:EnumerateHubPorts-->DeviceIoControl failed,err=0x48f
10:47:46 652	Error:EnumerateHubPorts-->DeviceIoControl failed,err=0x48f
10:50:29 170	Error:EnumerateHubPorts-->DeviceIoControl failed,err=0x48f
10:50:45 951	Error:EnumerateHubPorts-->DeviceIoControl failed,err=0x48f
10:51:02 712	Error:EnumerateHubPorts-->DeviceIoControl failed,err=0x48f
10:52:00 276	Error:EnumerateHubPorts-->DeviceIoControl failed,err=0x48f
10:54:39 161	Error:EnumerateHubPorts-->DeviceIoControl failed,err=0x48f
10:55:26 165	Error:EnumerateHubPorts-->DeviceIoControl failed,err=0x48f
10:56:22 360	Error:EnumerateHubPorts-->DeviceIoControl failed,err=0x48f
10:58:01 203	Error:EnumerateHubPorts-->DeviceIoControl failed,err=0x48f
10:59:34 983	Error:EnumerateHubPorts-->DeviceIoControl failed,err=0x48f
11:19:14 816	Error:EnumerateHubPorts-->DeviceIoControl failed,err=0x48f
11:23:34 594	Error:EnumerateHubPorts-->DeviceIoControl failed,err=0x48f
11:30:54 382	Error:EnumerateHubPorts-->DeviceIoControl failed,err=0x48f
11:31:05 245	Error:EnumerateHubPorts-->DeviceIoControl failed,err=0x48f
11:31:10 303	Error:EnumerateHubPorts-->DeviceIoControl failed,err=0x48f
11:36:22 872	Error:EnumerateHubPorts-->DeviceIoControl failed,err=0x48f
11:45:41 340	Error:EnumerateHubPorts-->DeviceIoControl failed,err=0x48f
11:51:58 371	Error:EnumerateHubPorts-->DeviceIoControl failed,err=0x48f
14:08:04 987	Error:EnumerateHubPorts-->DeviceIoControl failed,err=0x48f
14:08:09 906	Error:EnumerateHubPorts-->DeviceIoControl failed,err=0x48f
14:51:13 421	Error:EnumerateHubPorts-->DeviceIoControl failed,err=0x48f
14:52:35 055	Error:EnumerateHubPorts-->DeviceIoControl failed,err=0x48f
14:52:49 882	Error:EnumerateHubPorts-->DeviceIoControl failed,err=0x48f
14:53:59 913	Error:EnumerateHubPorts-->DeviceIoControl failed,err=0x48f
14:58:06 738	Error:EnumerateHubPorts-->DeviceIoControl failed,err=0x48f
15:00:15 890	Error:EnumerateHubPorts-->DeviceIoControl failed,err=0x48f
15:02:38 088	Error:EnumerateHubPorts-->DeviceIoControl failed,err=0x48f
15:03:17 712	Error:EnumerateHubPorts-->DeviceIoControl failed,err=0x48f
15:03:22 670	Error:EnumerateHubPorts-->DeviceIoControl failed,err=0x48f
15:04:12 168	Error:EnumerateHubPorts-->DeviceIoControl failed,err=0x48f
15:06:59 560	Error:EnumerateHubPorts-->DeviceIoControl failed,err=0x48f
15:07:04 473	Error:EnumerateHubPorts-->DeviceIoControl failed,err=0x48f
15:08:23 551	Error:EnumerateHubPorts-->DeviceIoControl failed,err=0x48f
15:09:39 130	Error:EnumerateHubPorts-->DeviceIoControl failed,err=0x48f
15:09:55 331	Error:EnumerateHubPorts-->DeviceIoControl failed,err=0x48f
15:17:21 539	Error:EnumerateHubPorts-->DeviceIoControl failed,err=0x48f
15:21:18 725	Error:EnumerateHubPorts-->DeviceIoControl failed,err=0x48f
15:21:28 669	Error:EnumerateHubPorts-->DeviceIoControl failed,err=0x48f
15:23:48 236	Error:EnumerateHubPorts-->DeviceIoControl failed,err=0x48f
15:24:15 891	Error:EnumerateHubPorts-->DeviceIoControl failed,err=0x48f
15:29:24 667	Error:EnumerateHubPorts-->DeviceIoControl failed,err=0x48f
15:39:10 182	Error:EnumerateHubPorts-->DeviceIoControl failed,err=0x48f
15:41:50 474	Error:EnumerateHubPorts-->DeviceIoControl failed,err=0x48f
15:42:05 011	Error:EnumerateHubPorts-->DeviceIoControl failed,err=0x48f
15:42:09 996	Error:EnumerateHubPorts-->DeviceIoControl failed,err=0x48f
15:51:00 877	Error:EnumerateHubPorts-->DeviceIoControl failed,err=0x48f
15:51:13 184	Error:EnumerateHubPorts-->DeviceIoControl failed,err=0x48f
15:51:17 935	Error:EnumerateHubPorts-->DeviceIoControl failed,err=0x48f
15:52:19 822	Error:EnumerateHubPorts-->DeviceIoControl failed,err=0x48f
15:54:15 524	Error:EnumerateHubPorts-->DeviceIoControl failed,err=0x48f
15:54:31 148	Error:EnumerateHubPorts-->DeviceIoControl failed,err=0x48f
15:54:36 156	Error:EnumerateHubPorts-->DeviceIoControl failed,err=0x48f
16:16:29 242	Error:EnumerateHubPorts-->DeviceIoControl failed,err=0x48f
16:16:55 766	Error:EnumerateHubPorts-->DeviceIoControl failed,err=0x48f
16:17:00 861	Error:EnumerateHubPorts-->DeviceIoControl failed,err=0x48f
16:20:13 798	Error:EnumerateHubPorts-->DeviceIoControl failed,err=0x48f
16:20:29 922	Error:EnumerateHubPorts-->DeviceIoControl failed,err=0x48f
16:25:59 964	Error:EnumerateHubPorts-->DeviceIoControl failed,err=0x48f
16:26:18 138	Error:EnumerateHubPorts-->DeviceIoControl failed,err=0x48f
16:29:12 013	Error:EnumerateHubPorts-->DeviceIoControl failed,err=0x48f
16:29:26 516	Error:EnumerateHubPorts-->DeviceIoControl failed,err=0x48f
16:37:12 412	Error:EnumerateHubPorts-->DeviceIoControl failed,err=0x48f
16:37:17 307	Error:EnumerateHubPorts-->DeviceIoControl failed,err=0x48f
16:37:46 041	Error:EnumerateHubPorts-->DeviceIoControl failed,err=0x48f
16:40:48 330	Error:EnumerateHubPorts-->DeviceIoControl failed,err=0x48f
16:40:58 585	Error:EnumerateHubPorts-->DeviceIoControl failed,err=0x48f
16:41:03 454	Error:EnumerateHubPorts-->DeviceIoControl failed,err=0x48f
16:42:28 248	Error:EnumerateHubPorts-->DeviceIoControl failed,err=0x48f
16:48:07 748	Error:EnumerateHubPorts-->DeviceIoControl failed,err=0x48f
16:51:07 804	Error:EnumerateHubPorts-->DeviceIoControl failed,err=0x48f
16:51:12 814	Error:EnumerateHubPorts-->DeviceIoControl failed,err=0x48f
16:53:34 455	Error:EnumerateHubPorts-->DeviceIoControl failed,err=0x48f
17:00:34 215	Error:EnumerateHubPorts-->DeviceIoControl failed,err=0x48f
17:00:39 230	Error:EnumerateHubPorts-->DeviceIoControl failed,err=0x48f
17:03:48 225	Error:EnumerateHubPorts-->DeviceIoControl failed,err=0x48f
17:03:53 157	Error:EnumerateHubPorts-->DeviceIoControl failed,err=0x48f
17:04:17 138	Error:EnumerateHubPorts-->DeviceIoControl failed,err=0x48f
17:05:43 245	Error:EnumerateHubPorts-->DeviceIoControl failed,err=0x48f
17:18:36 801	Error:EnumerateHubPorts-->DeviceIoControl failed,err=0x48f
17:18:41 799	Error:EnumerateHubPorts-->DeviceIoControl failed,err=0x48f
17:20:58 497	Error:EnumerateHubPorts-->DeviceIoControl failed,err=0x48f
17:21:14 461	Error:EnumerateHubPorts-->DeviceIoControl failed,err=0x48f
17:22:10 028	Error:EnumerateHubPorts-->DeviceIoControl failed,err=0x48f
17:23:43 710	Error:EnumerateHubPorts-->DeviceIoControl failed,err=0x48f
17:38:00 662	Error:EnumerateHubPorts-->DeviceIoControl failed,err=0x48f
17:42:26 593	ERROR:Search_ADB-->CM_Get_Sibling failed(0xd)
17:45:01 541	Error:EnumerateHubPorts-->DeviceIoControl failed,err=0x48f
17:45:31 653	Error:EnumerateHubPorts-->DeviceIoControl failed,err=0x48f
17:46:11 184	Error:EnumerateHubPorts-->DeviceIoControl failed,err=0x48f
17:46:16 225	Error:EnumerateHubPorts-->DeviceIoControl failed,err=0x48f
17:48:04 448	Error:EnumerateHubPorts-->DeviceIoControl failed,err=0x48f
17:48:14 243	Error:EnumerateHubPorts-->DeviceIoControl failed,err=0x48f
17:48:19 113	Error:EnumerateHubPorts-->DeviceIoControl failed,err=0x48f
17:53:37 599	Error:EnumerateHubPorts-->DeviceIoControl failed,err=0x48f
18:02:18 060	Error:EnumerateHubPorts-->DeviceIoControl failed,err=0x48f
18:02:28 518	Error:EnumerateHubPorts-->DeviceIoControl failed,err=0x48f
18:02:33 602	Error:EnumerateHubPorts-->DeviceIoControl failed,err=0x48f
18:03:14 134	Error:EnumerateHubPorts-->DeviceIoControl failed,err=0x48f
18:04:10 569	Error:EnumerateHubPorts-->DeviceIoControl failed,err=0x48f
18:04:19 744	Error:EnumerateHubPorts-->DeviceIoControl failed,err=0x48f
18:04:24 727	Error:EnumerateHubPorts-->DeviceIoControl failed,err=0x48f
18:06:42 208	Error:EnumerateHubPorts-->DeviceIoControl failed,err=0x48f
18:10:51 702	Error:EnumerateHubPorts-->DeviceIoControl failed,err=0x48f
18:12:30 330	Error:EnumerateHubPorts-->DeviceIoControl failed,err=0x48f
18:12:46 017	Error:EnumerateHubPorts-->DeviceIoControl failed,err=0x48f
18:17:11 485	Error:EnumerateHubPorts-->DeviceIoControl failed,err=0x48f
18:17:16 530	Error:EnumerateHubPorts-->DeviceIoControl failed,err=0x48f
18:43:40 109	Error:EnumerateHubPorts-->DeviceIoControl failed,err=0x48f
18:43:45 103	Error:EnumerateHubPorts-->DeviceIoControl failed,err=0x48f
18:45:20 910	Error:EnumerateHubPorts-->DeviceIoControl failed,err=0x48f
18:45:25 819	Error:EnumerateHubPorts-->DeviceIoControl failed,err=0x48f
18:47:58 269	Error:EnumerateHubPorts-->DeviceIoControl failed,err=0x48f
18:55:17 657	Error:EnumerateHubPorts-->DeviceIoControl failed,err=0x48f
18:55:32 204	Error:EnumerateHubPorts-->DeviceIoControl failed,err=0x48f
18:56:21 651	Error:EnumerateHubPorts-->DeviceIoControl failed,err=0x48f
18:56:26 630	Error:EnumerateHubPorts-->DeviceIoControl failed,err=0x48f
18:56:59 956	Error:EnumerateHubPorts-->DeviceIoControl failed,err=0x48f
18:57:11 413	Error:EnumerateHubPorts-->DeviceIoControl failed,err=0x48f
18:57:16 311	Error:EnumerateHubPorts-->DeviceIoControl failed,err=0x48f
18:58:08 139	Error:EnumerateHubPorts-->DeviceIoControl failed,err=0x48f
18:58:22 945	Error:EnumerateHubPorts-->DeviceIoControl failed,err=0x48f
18:59:01 231	Error:EnumerateHubPorts-->DeviceIoControl failed,err=0x48f
19:00:30 604	Error:EnumerateHubPorts-->DeviceIoControl failed,err=0x48f
