15:42:38 268	ERROR:Search_ADB-->CM_Get_Sibling failed(0xd)
15:42:38 506	ERROR:Search_ADB-->CM_Get_Sibling failed(0xd)
15:42:43 687	ERROR:Search_ADB-->CM_Get_Sibling failed(0xd)
16:03:39 232	ERROR:Search_ADB-->CM_Get_Sibling failed(0xd)
16:03:39 497	ERROR:Search_ADB-->CM_Get_Sibling failed(0xd)
16:03:44 510	ERROR:Search_ADB-->CM_Get_Sibling failed(0xd)
16:25:26 661	ERROR:Search_ADB-->CM_Get_Sibling failed(0xd)
16:25:26 895	ERROR:Search_ADB-->CM_Get_Sibling failed(0xd)
16:25:32 093	ERROR:Search_ADB-->CM_Get_Sibling failed(0xd)
16:44:52 718	ERROR:Search_ADB-->CM_Get_Sibling failed(0xd)
16:44:58 185	ERROR:Search_ADB-->CM_Get_Sibling failed(0xd)
17:18:04 972	ERROR:Search_ADB-->CM_Get_Sibling failed(0xd)
17:18:10 342	ERROR:Search_ADB-->CM_Get_Sibling failed(0xd)
