10:10:28 907	<LAYER 3-8> ERROR:GetDrive-->CM_Get_Child(instance:10712) failed,err=0xd
10:15:48 252	<LAYER 3-8> ERROR:GetDrive-->CM_Get_Child(instance:10712) failed,err=0xd
10:30:15 560	<LAYER 3-8> ERROR:GetProperty-->SetupDiGetDeviceRegistryProperty failed,GetlastError(0xe000020b)
10:30:15 572	<LAYER 3-8> ERROR:GetDemoDrive-->Get PDOName failed
10:31:27 380	<LAYER 3-8> ERROR:GetDemoDrive-->QueryVolume failed
10:35:32 567	<LAYER 3-8> ERROR:GetProperty-->SetupDiGetDeviceRegistryProperty failed,GetlastError(0xe000020b)
10:35:32 577	<LAYER 3-8> ERROR:GetDemoDrive-->Get PDOName failed
11:01:54 627	<LAYER 3-8> ERROR:GetDemoDrive-->QueryVolume failed
11:03:27 752	<LAYER 3-8> ERROR:GetDrive-->CM_Get_Child(instance:10712) failed,err=0xd
11:04:20 590	<LAYER 3-8> ERROR:GetDrive-->CM_Get_Child(instance:10712) failed,err=0xd
11:05:59 858	<LAYER 3-8> ERROR:GetDemoDrive-->QueryVolume failed
11:48:28 098	<LAYER 3-8> ERROR:GetDrive-->CM_Get_Child(instance:10712) failed,err=0xd
14:01:50 197	<LAYER 3-4-3> ERROR:GetDemoDrive-->QueryVolume failed
14:03:18 308	<LAYER 3-4-3> ERROR:GetDrive-->CM_Get_Child(instance:5832) failed,err=0xd
14:03:18 816	<LAYER 3-4-3> ERROR:GetDrive-->CM_Get_Child(instance:5832) failed,err=0xd
14:03:19 322	<LAYER 3-4-3> ERROR:GetDrive-->CM_Get_Child(instance:5832) failed,err=0xd
14:04:39 464	<LAYER 3-8> ERROR:GetDrive-->CM_Get_Child(instance:10712) failed,err=0xd
14:05:14 477	<LAYER 3-8> ERROR:GetDrive-->CM_Get_Child(instance:10712) failed,err=0xd
14:08:03 608	<LAYER 3-8> ERROR:GetDrive-->CM_Get_Child(instance:10712) failed,err=0xd
14:09:03 629	<LAYER 3-8> ERROR:GetDemoDrive-->QueryVolume failed
14:14:24 105	<LAYER 3-8> ERROR:GetDemoDrive-->QueryVolume failed
14:24:38 988	<LAYER 3-8> ERROR:GetDemoDrive-->QueryVolume failed
14:53:07 837	<LAYER 3-8> ERROR:GetDrive-->CM_Get_Child(instance:10712) failed,err=0xd
14:57:01 836	<LAYER 3-8> ERROR:GetDemoDrive-->QueryVolume failed
14:59:45 205	<LAYER 3-8> ERROR:GetDrive-->CM_Get_Child(instance:10712) failed,err=0xd
15:00:51 756	<LAYER 3-8> ERROR:GetDemoDrive-->QueryVolume failed
15:01:54 226	<LAYER 3-8> ERROR:GetDrive-->CM_Get_Child(instance:10712) failed,err=0xd
15:03:49 608	<LAYER 3-8> ERROR:GetProperty-->SetupDiGetDeviceRegistryProperty failed,GetlastError(0xe000020b)
15:03:49 652	<LAYER 3-8> ERROR:GetDemoDrive-->Get PDOName failed
15:05:13 612	<LAYER 3-8> ERROR:GetProperty-->SetupDiGetDeviceRegistryProperty failed,GetlastError(0xe000020b)
15:05:13 640	<LAYER 3-8> ERROR:GetDemoDrive-->Get PDOName failed
15:09:40 230	<LAYER 3-8> ERROR:GetDrive-->CM_Get_Child(instance:10712) failed,err=0xd
15:14:52 968	<LAYER 3-8> ERROR:GetDrive-->CM_Get_Child(instance:10712) failed,err=0xd
15:22:42 043	<LAYER 3-8> ERROR:GetDemoDrive-->QueryVolume failed
15:24:36 158	<LAYER 3-4-3> ERROR:GetProperty-->SetupDiGetDeviceRegistryProperty failed,GetlastError(0xe000020b)
15:24:36 175	<LAYER 3-4-3> ERROR:GetDemoDrive-->Get PDOName failed
15:25:44 422	<LAYER 3-4-3> ERROR:GetDemoDrive-->QueryVolume failed
15:27:00 344	<LAYER 3-4-3> ERROR:GetDemoDrive-->QueryVolume failed
15:28:56 492	<LAYER 3-4-3> ERROR:GetDemoDrive-->QueryVolume failed
15:30:38 122	<LAYER 3-4-3> ERROR:GetProperty-->SetupDiGetDeviceRegistryProperty failed,GetlastError(0xe000020b)
15:30:38 150	<LAYER 3-4-3> ERROR:GetDemoDrive-->Get PDOName failed
15:51:31 904	<LAYER 3-8> ERROR:GetDemoDrive-->QueryVolume failed
15:52:01 383	<LAYER 3-8> ERROR:GetDrive-->CM_Get_Child(instance:10712) failed,err=0xd
15:54:14 214	<LAYER 3-8> ERROR:GetDemoDrive-->QueryVolume failed
15:58:33 213	<LAYER 3-8> ERROR:GetDrive-->CM_Get_Child(instance:10712) failed,err=0xd
15:59:45 822	<LAYER 3-8> ERROR:GetProperty-->SetupDiGetDeviceRegistryProperty failed,GetlastError(0xe000020b)
15:59:45 831	<LAYER 3-8> ERROR:GetDemoDrive-->Get PDOName failed
16:02:07 102	<LAYER 3-8> ERROR:GetDrive-->CM_Get_Child(instance:10712) failed,err=0xd
16:02:51 276	<LAYER 3-8> ERROR:GetDemoDrive-->QueryVolume failed
16:04:31 396	<LAYER 3-8> ERROR:GetProperty-->SetupDiGetDeviceRegistryProperty failed,GetlastError(0xe000020b)
16:04:31 406	<LAYER 3-8> ERROR:GetDemoDrive-->Get PDOName failed
16:17:39 867	<LAYER 3-8> ERROR:GetProperty-->SetupDiGetDeviceRegistryProperty failed,GetlastError(0xe000020b)
16:17:39 885	<LAYER 3-8> ERROR:GetDemoDrive-->Get PDOName failed
16:21:14 267	<LAYER 3-8> ERROR:GetDrive-->CM_Get_Child(instance:10712) failed,err=0xd
16:45:12 168	<LAYER 3-8> ERROR:GetProperty-->SetupDiGetDeviceRegistryProperty failed,GetlastError(0xe000020b)
16:45:12 180	<LAYER 3-8> ERROR:GetDemoDrive-->Get PDOName failed
16:45:38 787	<LAYER 3-8> ERROR:GetDemoDrive-->QueryVolume failed
16:48:26 563	<LAYER 3-8> ERROR:GetDrive-->CM_Get_Child(instance:10712) failed,err=0xd
16:59:01 410	<LAYER 3-8> ERROR:GetDrive-->CM_Get_Child(instance:10712) failed,err=0xd
17:00:20 033	ERROR:Search_ADB-->CM_Get_Sibling failed(0xd)
17:00:25 500	ERROR:Search_ADB-->CM_Get_Sibling failed(0xd)
17:17:45 950	<LAYER 3-8> ERROR:GetDrive-->CM_Get_Child(instance:10712) failed,err=0xd
17:28:54 285	<LAYER 3-8> ERROR:GetDrive-->CM_Get_Child(instance:10712) failed,err=0xd
17:29:28 925	<LAYER 3-8> ERROR:GetDrive-->CM_Get_Child(instance:10712) failed,err=0xd
17:30:53 003	<LAYER 3-8> ERROR:GetDrive-->CM_Get_Child(instance:10712) failed,err=0xd
17:32:00 271	<LAYER 3-8> ERROR:GetDemoDrive-->QueryVolume failed
17:33:57 077	<LAYER 3-8> ERROR:GetDrive-->CM_Get_Child(instance:10712) failed,err=0xd
17:34:24 865	<LAYER 3-8> ERROR:GetDrive-->CM_Get_Child(instance:10712) failed,err=0xd
17:35:27 583	<LAYER 3-8> ERROR:GetDemoDrive-->QueryVolume failed
17:36:21 714	<LAYER 3-8> ERROR:GetDemoDrive-->QueryVolume failed
17:38:35 836	<LAYER 3-8> ERROR:GetDemoDrive-->QueryVolume failed
17:39:49 206	<LAYER 3-8> ERROR:GetDemoDrive-->QueryVolume failed
17:41:50 049	<LAYER 3-8> ERROR:GetProperty-->SetupDiGetDeviceRegistryProperty failed,GetlastError(0xe000020b)
17:41:50 060	<LAYER 3-8> ERROR:GetDemoDrive-->Get PDOName failed
17:42:40 232	<LAYER 3-8> ERROR:GetDrive-->CM_Get_Child(instance:10712) failed,err=0xd
17:44:54 256	<LAYER 3-8> ERROR:GetDrive-->CM_Get_Child(instance:10712) failed,err=0xd
17:45:42 198	<LAYER 3-8> ERROR:GetDrive-->CM_Get_Child(instance:10712) failed,err=0xd
17:47:07 194	<LAYER 3-8> ERROR:GetDrive-->CM_Get_Child(instance:10712) failed,err=0xd
17:47:38 256	<LAYER 3-8> ERROR:GetDemoDrive-->QueryVolume failed
17:48:24 386	<LAYER 3-8> ERROR:GetDrive-->CM_Get_Child(instance:10712) failed,err=0xd
17:48:44 386	<LAYER 3-8> ERROR:GetDemoDrive-->QueryVolume failed
17:50:40 208	<LAYER 3-8> ERROR:GetDrive-->CM_Get_Child(instance:10712) failed,err=0xd
17:51:01 204	<LAYER 3-8> ERROR:GetDrive-->CM_Get_Child(instance:10712) failed,err=0xd
17:51:58 318	<LAYER 3-8> ERROR:GetDemoDrive-->QueryVolume failed
17:52:17 446	<LAYER 3-8> ERROR:GetDrive-->CM_Get_Child(instance:10712) failed,err=0xd
17:53:33 454	<LAYER 3-8> ERROR:GetProperty-->SetupDiGetDeviceRegistryProperty failed,GetlastError(0xe000020b)
17:53:33 472	<LAYER 3-8> ERROR:GetDemoDrive-->Get PDOName failed
17:53:33 980	<LAYER 3-8> ERROR:GetDemoDrive-->QueryVolume failed
17:53:53 501	<LAYER 3-8> ERROR:GetDrive-->CM_Get_Child(instance:10712) failed,err=0xd
17:55:35 713	<LAYER 3-8> ERROR:GetProperty-->SetupDiGetDeviceRegistryProperty failed,GetlastError(0xe000020b)
17:55:35 761	<LAYER 3-8> ERROR:GetDemoDrive-->Get PDOName failed
17:55:53 829	<LAYER 3-8> ERROR:GetDrive-->CM_Get_Child(instance:10712) failed,err=0xd
17:57:43 860	<LAYER 3-8> ERROR:GetDrive-->CM_Get_Child(instance:10712) failed,err=0xd
17:58:46 405	<LAYER 3-8> ERROR:GetDemoDrive-->QueryVolume failed
17:59:06 622	<LAYER 3-8> ERROR:GetProperty-->SetupDiGetDeviceRegistryProperty failed,GetlastError(0xe000020b)
17:59:06 633	<LAYER 3-8> ERROR:GetDemoDrive-->Get PDOName failed
17:59:24 100	<LAYER 3-8> ERROR:GetDrive-->CM_Get_Child(instance:10712) failed,err=0xd
17:59:47 104	<LAYER 3-8> ERROR:GetDrive-->CM_Get_Child(instance:10712) failed,err=0xd
18:00:05 006	<LAYER 3-8> ERROR:GetDrive-->CM_Get_Child(instance:10712) failed,err=0xd
18:00:42 022	<LAYER 3-8> ERROR:GetDrive-->CM_Get_Child(instance:10712) failed,err=0xd
18:01:02 590	<LAYER 3-8> ERROR:GetDrive-->CM_Get_Child(instance:10712) failed,err=0xd
18:01:37 587	<LAYER 3-8> ERROR:GetDrive-->CM_Get_Child(instance:10712) failed,err=0xd
18:01:59 669	<LAYER 3-8> ERROR:GetDemoDrive-->QueryVolume failed
