15:09:49 117	ERROR:Search_ADB-->CM_Get_Sibling failed(0xd)
15:09:49 761	ERROR:Search_ADB-->CM_Get_Sibling failed(0xd)
15:27:40 640	ERROR:Search_ADB-->CM_Get_Sibling failed(0xd)
15:27:40 971	ERROR:Search_ADB-->CM_Get_Sibling failed(0xd)
15:27:45 155	ERROR:Search_ADB-->CM_Get_Sibling failed(0xd)
17:14:24 915	ERROR:Search_ADB-->CM_Get_Sibling failed(0xd)
17:14:25 150	ERROR:Search_ADB-->CM_Get_Sibling failed(0xd)
17:14:25 396	ERROR:Search_ADB-->CM_Get_Sibling failed(0xd)
17:14:29 337	ERROR:Search_ADB-->CM_Get_Sibling failed(0xd)
17:59:14 861	ERROR:Search_ADB-->CM_Get_Sibling failed(0xd)
18:22:11 469	ERROR:Search_ADB-->CM_Get_Sibling failed(0xd)
18:22:11 698	ERROR:Search_ADB-->CM_Get_Sibling failed(0xd)
18:22:11 920	ERROR:Search_ADB-->CM_Get_Sibling failed(0xd)
18:23:12 525	ERROR:Search_ADB-->CM_Get_Sibling failed(0xd)
18:25:55 520	ERROR:Search_ADB-->CM_Get_Sibling failed(0xd)
18:25:59 921	ERROR:Search_ADB-->CM_Get_Sibling failed(0xd)
18:43:16 000	ERROR:Search_ADB-->CM_Get_Sibling failed(0xd)
18:43:20 446	ERROR:Search_ADB-->CM_Get_Sibling failed(0xd)
